[gd_scene load_steps=5 format=3 uid="uid://cw70gv3wlhccw"]

[ext_resource type="MeshLibrary" uid="uid://blvpnq5lahp6n" path="res://levels/tiles.meshlib" id="1_7ts6q"]
[ext_resource type="PackedScene" uid="uid://cunmq5go3qltp" path="res://elements/cult.tscn" id="2_8mebr"]
[ext_resource type="PackedScene" uid="uid://mr1gy32yev2a" path="res://elements/building.tscn" id="3_eeelo"]
[ext_resource type="PackedScene" uid="uid://cn6sr3470iphr" path="res://elements/dumpster.tscn" id="4_fa388"]

[node name="Map" type="Node3D"]

[node name="GridMap" type="GridMap" parent="."]
mesh_library = ExtResource("1_7ts6q")
cell_size = Vector3(6, 1, 6)
cell_center_y = false
data = {
"cells": PackedInt32Array(0, 0, 2, 0, 1, 5, 0, 2, 5, 0, 3, 0, 0, 4, 5, 5, 0, 1441794, 5, 1, 655365, 5, 2, 655365, 5, 3, 655365, 5, 4, 655365, 5, 5, 655365, 5, 6, 655365, 5, 7, 655365, 4, 8, 1048581, 3, 8, 1048581, 2, 8, 1048581, 1, 8, 1048581, 0, 7, 5, 0, 6, 5, 0, 5, 5, 1, 0, 1441797, 2, 0, 1441797, 3, 0, 1441797, 4, 0, 1441797, 5, 8, 655362, 0, 8, 1048578, 1, 1, 1048579, 1, 2, 1048579, 1, 3, 1048579, 1, 4, 1048579, 1, 5, 1048579, 1, 6, 1048579, 1, 7, 1048579, 2, 7, 1048579, 3, 7, 1048579, 4, 7, 1048579, 4, 6, 1048579, 4, 5, 1048579, 4, 4, 1048579, 4, 3, 1048579, 4, 2, 1048579, 4, 1, 1048579, 3, 1, 1048579, 2, 1, 1048579, 2, 2, 1048579, 2, 3, 1048579, 2, 4, 1048579, 2, 5, 1048579, 2, 6, 1048579, 3, 6, 1048579, 3, 5, 1048579, 3, 4, 1048579, 3, 3, 1048579, 3, 2, 1048579, 0, 65535, 1048577, 1, 65535, 1048577, 2, 65535, 1048577, 3, 65535, 1048577, 4, 65535, 1048577, 5, 65535, 1048577, 5, 9, 1048577, 4, 9, 1048577, 3, 9, 1048577, 2, 9, 1048577, 1, 9, 1048577, 0, 9, 1048577, 65535, 8, 1, 65535, 7, 1, 65535, 6, 1, 65535, 5, 1, 65535, 4, 1, 65535, 3, 1, 65535, 2, 1, 65535, 1, 1, 65535, 0, 1, 6, 0, 1, 6, 1, 1, 6, 2, 1, 6, 3, 1, 6, 4, 1, 6, 5, 1, 6, 6, 1, 6, 7, 1, 6, 8, 1, 6, 65535, 4, 65535, 65535, 4, 65535, 9, 4, 6, 9, 4, 7, 65535, 1048577, 7, 0, 2, 7, 1, 5, 7, 2, 5, 7, 3, 5, 7, 4, 5, 7, 5, 5, 7, 6, 5, 7, 7, 5, 7, 8, 1048578, 7, 9, 1048577, 8, 65535, 1048577, 8, 0, 1441797, 8, 1, 1048579, 8, 2, 1048579, 8, 3, 1048579, 8, 4, 1048579, 8, 5, 1048579, 8, 6, 1048579, 8, 7, 1048579, 8, 8, 1048581, 8, 9, 1048577, 9, 65535, 1048577, 9, 0, 1441792, 9, 1, 1048579, 9, 2, 1048579, 9, 3, 1048579, 9, 4, 1048579, 9, 5, 1048579, 9, 6, 1048579, 9, 7, 1048579, 9, 8, 1048581, 9, 9, 1048577, 10, 65535, 1048577, 10, 0, 1441797, 10, 1, 1048579, 10, 2, 1048579, 10, 3, 1048579, 10, 4, 1048579, 10, 5, 1048579, 10, 6, 1048579, 10, 7, 1048579, 10, 8, 1048581, 10, 9, 1048577, 11, 65535, 1048577, 11, 0, 1441797, 11, 1, 1048579, 11, 2, 1048579, 11, 3, 1048579, 11, 4, 1048579, 11, 5, 1048579, 11, 6, 1048579, 11, 7, 1048579, 11, 8, 1048581, 11, 9, 1048577, 12, 65535, 1048577, 12, 0, 1441794, 12, 1, 655365, 12, 2, 655365, 12, 3, 655365, 12, 4, 655365, 12, 5, 655360, 12, 6, 655365, 12, 7, 655365, 12, 8, 655362, 12, 9, 1048577, 13, 65535, 4, 13, 0, 1, 13, 1, 1, 13, 2, 1, 13, 3, 1, 13, 4, 1, 13, 5, 1, 13, 6, 1, 13, 7, 1, 13, 8, 1, 13, 9, 4, 14, 65535, 1048577, 14, 0, 2, 14, 1, 5, 14, 2, 5, 14, 3, 5, 14, 4, 5, 14, 5, 0, 14, 6, 5, 14, 7, 5, 14, 8, 1048578, 14, 9, 1048577, 15, 65535, 1048577, 15, 0, 1441797, 15, 1, 1048579, 15, 2, 1048579, 15, 3, 1048579, 15, 4, 1048579, 15, 5, 1048579, 15, 6, 1048579, 15, 7, 1048579, 15, 8, 1048581, 15, 9, 1048577, 16, 65535, 1048577, 16, 0, 1441797, 16, 1, 1048579, 16, 2, 1048579, 16, 3, 1048579, 16, 4, 1048579, 16, 5, 1048579, 16, 6, 1048579, 16, 7, 1048579, 16, 8, 1048581, 16, 9, 1048577, 17, 65535, 1048577, 17, 0, 1441797, 17, 1, 1048579, 17, 2, 1048579, 17, 3, 1048579, 17, 4, 1048579, 17, 5, 1048579, 17, 6, 1048579, 17, 7, 1048579, 17, 8, 1048581, 17, 9, 1048577, 18, 65535, 1048577, 18, 0, 1441797, 18, 1, 1048579, 18, 2, 1048579, 18, 3, 1048579, 18, 4, 1048579, 18, 5, 1048579, 18, 6, 1048579, 18, 7, 1048579, 18, 8, 1048581, 18, 9, 1048577, 19, 65535, 1048577, 19, 0, 1441794, 19, 1, 655365, 19, 2, 655365, 19, 3, 655365, 19, 4, 655365, 19, 5, 655365, 19, 6, 655365, 19, 7, 655365, 19, 8, 655362, 19, 9, 1048577, 20, 65535, 4, 20, 0, 1, 20, 1, 1, 20, 2, 1, 20, 3, 1, 20, 4, 1, 20, 5, 1, 20, 6, 1, 20, 7, 1, 20, 8, 1, 20, 9, 4, 21, 65535, 1048577, 21, 0, 2, 21, 1, 5, 21, 2, 5, 21, 3, 5, 21, 4, 5, 21, 5, 5, 21, 6, 5, 21, 7, 5, 21, 8, 1048578, 21, 9, 1048577, 22, 65535, 1048577, 22, 0, 1441797, 22, 1, 1048579, 22, 2, 1048579, 22, 3, 1048579, 22, 4, 1048579, 22, 5, 1048579, 22, 6, 1048579, 22, 7, 1048579, 22, 8, 1048581, 22, 9, 1048577, 23, 65535, 1048577, 23, 0, 1441797, 23, 1, 1048579, 23, 2, 1048579, 23, 3, 1048579, 23, 4, 1048579, 23, 5, 1048579, 23, 6, 1048579, 23, 7, 1048579, 23, 8, 1048581, 23, 9, 1048577, 24, 65535, 1048577, 24, 0, 1441797, 24, 1, 1048579, 24, 2, 1048579, 24, 3, 1048579, 24, 4, 1048579, 24, 5, 1048579, 24, 6, 1048579, 24, 7, 1048579, 24, 8, 1048576, 24, 9, 1048577, 25, 65535, 1048577, 25, 0, 1441797, 25, 1, 1048579, 25, 2, 1048579, 25, 3, 1048579, 25, 4, 1048579, 25, 5, 1048579, 25, 6, 1048579, 25, 7, 1048579, 25, 8, 1048581, 25, 9, 1048577, 26, 65535, 1048577, 26, 0, 1441794, 26, 1, 655365, 26, 2, 655365, 26, 3, 655365, 26, 4, 655365, 26, 5, 655365, 26, 6, 655365, 26, 7, 655365, 26, 8, 655362, 26, 9, 1048577, 27, 65535, 4, 27, 0, 1, 27, 1, 1, 27, 2, 1, 27, 3, 1, 27, 4, 1, 27, 5, 1, 27, 6, 1, 27, 7, 1, 27, 8, 1, 27, 9, 4, 65535, 10, 1, 65535, 11, 1, 65535, 12, 1, 65535, 13, 1, 65535, 14, 1, 65535, 15, 1, 65535, 16, 1, 65535, 17, 1, 65535, 18, 1, 65535, 19, 4, 0, 10, 2, 0, 11, 5, 0, 12, 5, 0, 13, 5, 0, 14, 5, 0, 15, 5, 0, 16, 5, 0, 17, 5, 0, 18, 1048578, 0, 19, 1048577, 1, 10, 1441797, 1, 11, 1048579, 1, 12, 1048579, 1, 13, 1048579, 1, 14, 1048579, 1, 15, 1048579, 1, 16, 1048579, 1, 17, 1048579, 1, 18, 1048581, 1, 19, 1048577, 2, 10, 1441797, 2, 11, 1048579, 2, 12, 1048579, 2, 13, 1048579, 2, 14, 1048579, 2, 15, 1048579, 2, 16, 1048579, 2, 17, 1048579, 2, 18, 1048581, 2, 19, 1048577, 3, 10, 1441797, 3, 11, 1048579, 3, 12, 1048579, 3, 13, 1048579, 3, 14, 1048579, 3, 15, 1048579, 3, 16, 1048579, 3, 17, 1048579, 3, 18, 1048581, 3, 19, 1048577, 4, 10, 1441797, 4, 11, 1048579, 4, 12, 1048579, 4, 13, 1048579, 4, 14, 1048579, 4, 15, 1048579, 4, 16, 1048579, 4, 17, 1048579, 4, 18, 1048581, 4, 19, 1048577, 5, 10, 1441794, 5, 11, 655365, 5, 12, 655365, 5, 13, 655365, 5, 14, 655365, 5, 15, 655365, 5, 16, 655365, 5, 17, 655365, 5, 18, 655362, 5, 19, 1048577, 6, 10, 1, 6, 11, 1, 6, 12, 1, 6, 13, 1, 6, 14, 1, 6, 15, 1, 6, 16, 1, 6, 17, 1, 6, 18, 1, 6, 19, 4, 7, 10, 2, 7, 11, 5, 7, 12, 5, 7, 13, 5, 7, 14, 5, 7, 15, 5, 7, 16, 5, 7, 17, 5, 7, 18, 1048578, 7, 19, 1048577, 8, 10, 1441797, 8, 11, 1048579, 8, 12, 1048579, 8, 13, 1048579, 8, 14, 1048579, 8, 15, 1048579, 8, 16, 1048579, 8, 17, 1048579, 8, 18, 1048581, 8, 19, 1048577, 9, 10, 1441797, 9, 11, 1048579, 9, 12, 1048579, 9, 13, 1048579, 9, 14, 1048579, 9, 15, 1048579, 9, 16, 1048579, 9, 17, 1048579, 9, 18, 1048581, 9, 19, 1048577, 10, 10, 1441797, 10, 11, 1048579, 10, 12, 1048579, 10, 13, 1048579, 10, 14, 1048579, 10, 15, 1048579, 10, 16, 1048579, 10, 17, 1048579, 10, 18, 1048576, 10, 19, 1048577, 11, 10, 1441797, 11, 11, 1048579, 11, 12, 1048579, 11, 13, 1048579, 11, 14, 1048579, 11, 15, 1048579, 11, 16, 1048579, 11, 17, 1048579, 11, 18, 1048581, 11, 19, 1048577, 12, 10, 1441794, 12, 11, 655365, 12, 12, 655365, 12, 13, 655365, 12, 14, 655365, 12, 15, 655365, 12, 16, 655365, 12, 17, 655365, 12, 18, 655362, 12, 19, 1048577, 13, 10, 1, 13, 11, 1, 13, 12, 1, 13, 13, 1, 13, 14, 1, 13, 15, 1, 13, 16, 1, 13, 17, 1, 13, 18, 1, 13, 19, 4, 14, 10, 2, 14, 11, 5, 14, 12, 5, 14, 13, 5, 14, 14, 5, 14, 15, 5, 14, 16, 5, 14, 17, 5, 14, 18, 1048578, 14, 19, 1048577, 15, 10, 1441797, 15, 11, 1048579, 15, 12, 1048579, 15, 13, 1048579, 15, 14, 1048579, 15, 15, 1048579, 15, 16, 1048579, 15, 17, 1048579, 15, 18, 1048581, 15, 19, 1048577, 16, 10, 1441797, 16, 11, 1048579, 16, 12, 1048579, 16, 13, 1048579, 16, 14, 1048579, 16, 15, 1048579, 16, 16, 1048579, 16, 17, 1048579, 16, 18, 1048581, 16, 19, 1048577, 17, 10, 1441797, 17, 11, 1048579, 17, 12, 1048579, 17, 13, 1048579, 17, 14, 1048579, 17, 15, 1048579, 17, 16, 1048579, 17, 17, 1048579, 17, 18, 1048581, 17, 19, 1048577, 18, 10, 1441797, 18, 11, 1048579, 18, 12, 1048579, 18, 13, 1048579, 18, 14, 1048579, 18, 15, 1048579, 18, 16, 1048579, 18, 17, 1048579, 18, 18, 1048581, 18, 19, 1048577, 19, 10, 1441794, 19, 11, 655365, 19, 12, 655365, 19, 13, 655365, 19, 14, 655365, 19, 15, 655365, 19, 16, 655365, 19, 17, 655365, 19, 18, 655362, 19, 19, 1048577, 20, 10, 1, 20, 11, 1, 20, 12, 1, 20, 13, 1, 20, 14, 1, 20, 15, 1, 20, 16, 1, 20, 17, 1, 20, 18, 1, 20, 19, 4, 21, 10, 2, 21, 11, 5, 21, 12, 5, 21, 13, 5, 21, 14, 5, 21, 15, 5, 21, 16, 5, 21, 17, 5, 21, 18, 1048578, 21, 19, 1048577, 22, 10, 1441797, 22, 11, 1048579, 22, 12, 1048579, 22, 13, 1048579, 22, 14, 1048579, 22, 15, 1048579, 22, 16, 1048579, 22, 17, 1048579, 22, 18, 1048581, 22, 19, 1048577, 23, 10, 1441797, 23, 11, 1048579, 23, 12, 1048579, 23, 13, 1048579, 23, 14, 1048579, 23, 15, 1048579, 23, 16, 1048579, 23, 17, 1048579, 23, 18, 1048581, 23, 19, 1048577, 24, 10, 1441792, 24, 11, 1048579, 24, 12, 1048579, 24, 13, 1048579, 24, 14, 1048579, 24, 15, 1048579, 24, 16, 1048579, 24, 17, 1048579, 24, 18, 1048581, 24, 19, 1048577, 25, 10, 1441797, 25, 11, 1048579, 25, 12, 1048579, 25, 13, 1048579, 25, 14, 1048579, 25, 15, 1048579, 25, 16, 1048579, 25, 17, 1048579, 25, 18, 1048581, 25, 19, 1048577, 26, 10, 1441794, 26, 11, 655365, 26, 12, 655365, 26, 13, 655365, 26, 14, 655365, 26, 15, 655365, 26, 16, 655365, 26, 17, 655365, 26, 18, 655362, 26, 19, 1048577, 27, 10, 1, 27, 11, 1, 27, 12, 1, 27, 13, 1, 27, 14, 1, 27, 15, 1, 27, 16, 1, 27, 17, 1, 27, 18, 1, 27, 19, 4, 1, 65533, 655363, 2, 65533, 655363, 3, 65533, 655363, 4, 65533, 655363, 5, 65531, 655360, 5, 65532, 655365, 5, 65533, 655365, 5, 65527, 655365, 4, 65534, 1048581, 3, 65534, 1048581, 2, 65534, 1048581, 1, 65534, 1048576, 4, 65528, 1048581, 3, 65528, 1048581, 2, 65528, 1048576, 1, 65528, 1048581, 0, 65533, 5, 0, 65532, 5, 0, 65531, 5, 0, 65527, 5, 1, 65526, 1441797, 2, 65526, 1441797, 3, 65526, 1441792, 4, 65526, 1441797, 4, 65530, 1441797, 3, 65530, 1441792, 2, 65530, 1441797, 1, 65530, 1441797, 5, 65526, 1441794, 5, 65530, 1441794, 5, 65528, 655362, 5, 65534, 655362, 0, 65534, 1048578, 0, 65528, 1048578, 0, 65530, 2, 0, 65526, 2, 65535, 65526, 1, 65535, 65527, 1, 65535, 65528, 1, 65535, 65529, 1, 65535, 65530, 1, 65535, 65531, 1, 65535, 65532, 1, 65535, 65533, 1, 65535, 65534, 1, 6, 65526, 1, 6, 65527, 1, 6, 65528, 1, 6, 65529, 655366, 6, 65530, 1, 6, 65531, 1, 6, 65532, 1, 6, 65533, 1, 6, 65534, 1, 5, 65529, 1441793, 4, 65529, 1441793, 3, 65529, 1441793, 2, 65529, 1441793, 1, 65529, 1441793, 0, 65529, 1441793, 0, 65525, 1441793, 1, 65525, 1441793, 2, 65525, 1441793, 3, 65525, 1441793, 4, 65525, 1441793, 5, 65525, 1441793, 65535, 65525, 4, 6, 65525, 655364, 4, 65532, 655363, 3, 65532, 655363, 2, 65532, 655363, 1, 65532, 655363, 1, 65531, 655363, 2, 65531, 655363, 3, 65531, 655363, 4, 65531, 655363, 4, 65527, 655363, 3, 65527, 655363, 2, 65527, 655363, 1, 65527, 655363, 7, 65525, 1048577, 7, 65526, 2, 7, 65527, 5, 7, 65528, 5, 7, 65529, 5, 7, 65530, 5, 7, 65531, 5, 7, 65532, 5, 7, 65533, 5, 7, 65534, 1048578, 8, 65525, 1048577, 8, 65526, 1441797, 8, 65527, 1048579, 8, 65528, 1048579, 8, 65529, 1048579, 8, 65530, 1048579, 8, 65531, 1048579, 8, 65532, 1048579, 8, 65533, 1048579, 8, 65534, 1048581, 9, 65525, 1048577, 9, 65526, 1441797, 9, 65527, 1048579, 9, 65528, 1048579, 9, 65529, 1048579, 9, 65530, 1048579, 9, 65531, 1048579, 9, 65532, 1048579, 9, 65533, 1048579, 9, 65534, 1048581, 10, 65525, 1048577, 10, 65526, 1441797, 10, 65527, 1048579, 10, 65528, 1048579, 10, 65529, 1048579, 10, 65530, 1048579, 10, 65531, 1048579, 10, 65532, 1048579, 10, 65533, 1048579, 10, 65534, 1048581, 11, 65525, 1048577, 11, 65526, 1441797, 11, 65527, 1048579, 11, 65528, 1048579, 11, 65529, 1048579, 11, 65530, 1048579, 11, 65531, 1048579, 11, 65532, 1048579, 11, 65533, 1048579, 11, 65534, 1048581, 12, 65525, 1048577, 12, 65526, 1441794, 12, 65527, 655365, 12, 65528, 655365, 12, 65529, 655365, 12, 65530, 655365, 12, 65531, 655365, 12, 65532, 655365, 12, 65533, 655365, 12, 65534, 655362, 13, 65525, 4, 13, 65526, 1, 13, 65527, 1, 13, 65528, 1, 13, 65529, 1, 13, 65530, 1, 13, 65531, 1, 13, 65532, 1, 13, 65533, 1, 13, 65534, 1, 65507, 0, 1, 65507, 1, 1, 65507, 2, 1, 65507, 3, 1, 65507, 4, 1, 65507, 5, 1, 65507, 6, 1, 65507, 7, 1, 65507, 8, 1, 65507, 9, 4, 65507, 10, 1, 65507, 11, 1, 65507, 12, 1, 65507, 13, 1, 65507, 14, 1, 65507, 15, 1, 65507, 16, 1, 65507, 17, 1, 65507, 18, 1, 65507, 19, 4, 65508, 0, 2, 65508, 1, 5, 65508, 2, 5, 65508, 3, 5, 65508, 4, 5, 65508, 5, 0, 65508, 6, 5, 65508, 7, 5, 65508, 8, 1048578, 65508, 9, 1048577, 65508, 10, 2, 65508, 11, 5, 65508, 12, 5, 65508, 13, 5, 65508, 14, 5, 65508, 15, 5, 65508, 16, 5, 65508, 17, 5, 65508, 18, 1048578, 65508, 19, 1048577, 65509, 0, 1441797, 65509, 1, 1048579, 65509, 2, 1048579, 65509, 3, 1048579, 65509, 4, 1048579, 65509, 5, 1048579, 65509, 6, 1048579, 65509, 7, 1048579, 65509, 8, 1048581, 65509, 9, 1048577, 65509, 10, 1441797, 65509, 11, 1048579, 65509, 12, 1048579, 65509, 13, 1048579, 65509, 14, 1048579, 65509, 15, 1048579, 65509, 16, 1048579, 65509, 17, 1048579, 65509, 18, 1048581, 65509, 19, 1048577, 65510, 0, 1441797, 65510, 1, 1048579, 65510, 2, 1048579, 65510, 3, 1048579, 65510, 4, 1048579, 65510, 5, 1048579, 65510, 6, 1048579, 65510, 7, 1048579, 65510, 8, 1048576, 65510, 9, 1048577, 65510, 10, 1441792, 65510, 11, 1048579, 65510, 12, 1048579, 65510, 13, 1048579, 65510, 14, 1048579, 65510, 15, 1048579, 65510, 16, 1048579, 65510, 17, 1048579, 65510, 18, 1048581, 65510, 19, 1048577, 65511, 0, 1441797, 65511, 1, 1048579, 65511, 2, 1048579, 65511, 3, 1048579, 65511, 4, 1048579, 65511, 5, 1048579, 65511, 6, 1048579, 65511, 7, 1048579, 65511, 8, 1048581, 65511, 9, 1048577, 65511, 10, 1441797, 65511, 11, 1048579, 65511, 12, 1048579, 65511, 13, 1048579, 65511, 14, 1048579, 65511, 15, 1048579, 65511, 16, 1048579, 65511, 17, 1048579, 65511, 18, 1048581, 65511, 19, 1048577, 65512, 0, 1441797, 65512, 1, 1048579, 65512, 2, 1048579, 65512, 3, 1048579, 65512, 4, 1048579, 65512, 5, 1048579, 65512, 6, 1048579, 65512, 7, 1048579, 65512, 8, 1048581, 65512, 9, 1048577, 65512, 10, 1441797, 65512, 11, 1048579, 65512, 12, 1048579, 65512, 13, 1048579, 65512, 14, 1048579, 65512, 15, 1048579, 65512, 16, 1048579, 65512, 17, 1048579, 65512, 18, 1048581, 65512, 19, 1048577, 65513, 0, 1441794, 65513, 1, 655365, 65513, 2, 655365, 65513, 3, 655365, 65513, 4, 655365, 65513, 5, 655365, 65513, 6, 655365, 65513, 7, 655365, 65513, 8, 655362, 65513, 9, 1048577, 65513, 10, 1441794, 65513, 11, 655365, 65513, 12, 655365, 65513, 13, 655365, 65513, 14, 655365, 65513, 15, 655365, 65513, 16, 655365, 65513, 17, 655365, 65513, 18, 655362, 65513, 19, 1048577, 65514, 0, 1, 65514, 1, 1, 65514, 2, 1, 65514, 3, 1, 65514, 4, 1, 65514, 5, 1, 65514, 6, 1, 65514, 7, 1, 65514, 8, 1, 65514, 9, 4, 65514, 10, 1, 65514, 11, 1, 65514, 12, 1, 65514, 13, 1, 65514, 14, 1, 65514, 15, 1, 65514, 16, 1, 65514, 17, 1, 65514, 18, 1, 65514, 19, 4, 65515, 0, 2, 65515, 1, 5, 65515, 2, 5, 65515, 3, 5, 65515, 4, 5, 65515, 5, 5, 65515, 6, 5, 65515, 7, 5, 65515, 8, 1048578, 65515, 9, 1048577, 65515, 10, 2, 65515, 11, 5, 65515, 12, 5, 65515, 13, 5, 65515, 14, 5, 65515, 15, 5, 65515, 16, 5, 65515, 17, 5, 65515, 18, 1048578, 65515, 19, 1048577, 65516, 0, 1441797, 65516, 1, 1048579, 65516, 2, 1048579, 65516, 3, 1048579, 65516, 4, 1048579, 65516, 5, 1048579, 65516, 6, 1048579, 65516, 7, 1048579, 65516, 8, 1048581, 65516, 9, 1048577, 65516, 10, 1441797, 65516, 11, 1048579, 65516, 12, 1048579, 65516, 13, 1048579, 65516, 14, 1048579, 65516, 15, 1048579, 65516, 16, 1048579, 65516, 17, 1048579, 65516, 18, 1048581, 65516, 19, 1048577, 65517, 0, 1441797, 65517, 1, 1048579, 65517, 2, 1048579, 65517, 3, 1048579, 65517, 4, 1048579, 65517, 5, 1048579, 65517, 6, 1048579, 65517, 7, 1048579, 65517, 8, 1048581, 65517, 9, 1048577, 65517, 10, 1441797, 65517, 11, 1048579, 65517, 12, 1048579, 65517, 13, 1048579, 65517, 14, 1048579, 65517, 15, 1048579, 65517, 16, 1048579, 65517, 17, 1048579, 65517, 18, 1048581, 65517, 19, 1048577, 65518, 0, 1441792, 65518, 1, 1048579, 65518, 2, 1048579, 65518, 3, 1048579, 65518, 4, 1048579, 65518, 5, 1048579, 65518, 6, 1048579, 65518, 7, 1048579, 65518, 8, 1048581, 65518, 9, 1048577, 65518, 10, 1441792, 65518, 11, 1048579, 65518, 12, 1048579, 65518, 13, 1048579, 65518, 14, 1048579, 65518, 15, 1048579, 65518, 16, 1048579, 65518, 17, 1048579, 65518, 18, 1048581, 65518, 19, 1048577, 65519, 0, 1441797, 65519, 1, 1048579, 65519, 2, 1048579, 65519, 3, 1048579, 65519, 4, 1048579, 65519, 5, 1048579, 65519, 6, 1048579, 65519, 7, 1048579, 65519, 8, 1048581, 65519, 9, 1048577, 65519, 10, 1441797, 65519, 11, 1048579, 65519, 12, 1048579, 65519, 13, 1048579, 65519, 14, 1048579, 65519, 15, 1048579, 65519, 16, 1048579, 65519, 17, 1048579, 65519, 18, 1048581, 65519, 19, 1048577, 65520, 0, 1441794, 65520, 1, 655365, 65520, 2, 655365, 65520, 3, 655365, 65520, 4, 655365, 65520, 5, 655365, 65520, 6, 655360, 65520, 7, 655365, 65520, 8, 655362, 65520, 9, 1048577, 65520, 10, 1441794, 65520, 11, 655365, 65520, 12, 655365, 65520, 13, 655365, 65520, 14, 655365, 65520, 15, 655365, 65520, 16, 655365, 65520, 17, 655365, 65520, 18, 655362, 65520, 19, 1048577, 65521, 0, 1, 65521, 1, 1, 65521, 2, 1, 65521, 3, 1, 65521, 4, 1, 65521, 5, 1, 65521, 6, 1, 65521, 7, 1, 65521, 8, 1, 65521, 9, 4, 65521, 10, 1, 65521, 11, 1, 65521, 12, 1, 65521, 13, 1, 65521, 14, 1, 65521, 15, 1, 65521, 16, 1, 65521, 17, 1, 65521, 18, 1, 65521, 19, 4, 65522, 0, 2, 65522, 1, 5, 65522, 2, 5, 65522, 3, 5, 65522, 4, 5, 65522, 5, 5, 65522, 6, 5, 65522, 7, 0, 65522, 8, 1048578, 65522, 9, 1048577, 65522, 10, 2, 65522, 11, 5, 65522, 12, 5, 65522, 13, 5, 65522, 14, 5, 65522, 15, 5, 65522, 16, 0, 65522, 17, 5, 65522, 18, 1048578, 65522, 19, 1048577, 65523, 0, 1441797, 65523, 1, 1048579, 65523, 2, 1048579, 65523, 3, 1048579, 65523, 4, 1048579, 65523, 5, 1048579, 65523, 6, 1048579, 65523, 7, 1048579, 65523, 8, 1048581, 65523, 9, 1048577, 65523, 10, 1441797, 65523, 11, 1048579, 65523, 12, 1048579, 65523, 13, 1048579, 65523, 14, 1048579, 65523, 15, 1048579, 65523, 16, 1048579, 65523, 17, 1048579, 65523, 18, 1048581, 65523, 19, 1048577, 65524, 0, 1441797, 65524, 1, 1048579, 65524, 2, 1048579, 65524, 3, 1048579, 65524, 4, 1048579, 65524, 5, 1048579, 65524, 6, 1048579, 65524, 7, 1048579, 65524, 8, 1048581, 65524, 9, 1048577, 65524, 10, 1441792, 65524, 11, 1048579, 65524, 12, 1048579, 65524, 13, 1048579, 65524, 14, 1048579, 65524, 15, 1048579, 65524, 16, 1048579, 65524, 17, 1048579, 65524, 18, 1048581, 65524, 19, 1048577, 65525, 0, 1441797, 65525, 1, 1048579, 65525, 2, 1048579, 65525, 3, 1048579, 65525, 4, 1048579, 65525, 5, 1048579, 65525, 6, 1048579, 65525, 7, 1048579, 65525, 8, 1048581, 65525, 9, 1048577, 65525, 10, 1441797, 65525, 11, 1048579, 65525, 12, 1048579, 65525, 13, 1048579, 65525, 14, 1048579, 65525, 15, 1048579, 65525, 16, 1048579, 65525, 17, 1048579, 65525, 18, 1048581, 65525, 19, 1048577, 65526, 0, 1441797, 65526, 1, 1048579, 65526, 2, 1048579, 65526, 3, 1048579, 65526, 4, 1048579, 65526, 5, 1048579, 65526, 6, 1048579, 65526, 7, 1048579, 65526, 8, 1048581, 65526, 9, 1048577, 65526, 10, 1441797, 65526, 11, 1048579, 65526, 12, 1048579, 65526, 13, 1048579, 65526, 14, 1048579, 65526, 15, 1048579, 65526, 16, 1048579, 65526, 17, 1048579, 65526, 18, 1048581, 65526, 19, 1048577, 65527, 0, 1441794, 65527, 1, 655365, 65527, 2, 655365, 65527, 3, 655365, 65527, 4, 655365, 65527, 5, 655365, 65527, 6, 655365, 65527, 7, 655365, 65527, 8, 655362, 65527, 9, 1048577, 65527, 10, 1441794, 65527, 11, 655365, 65527, 12, 655365, 65527, 13, 655365, 65527, 14, 655365, 65527, 15, 655365, 65527, 16, 655365, 65527, 17, 655365, 65527, 18, 655362, 65527, 19, 1048577, 65528, 0, 1, 65528, 1, 1, 65528, 2, 1, 65528, 3, 1, 65528, 4, 1, 65528, 5, 1, 65528, 6, 1, 65528, 7, 1, 65528, 8, 1, 65528, 9, 4, 65528, 10, 1, 65528, 11, 1, 65528, 12, 1, 65528, 13, 1, 65528, 14, 1, 65528, 15, 1, 65528, 16, 1, 65528, 17, 1, 65528, 18, 1, 65528, 19, 4, 65529, 0, 2, 65529, 1, 5, 65529, 2, 5, 65529, 3, 5, 65529, 4, 5, 65529, 5, 5, 65529, 6, 5, 65529, 7, 5, 65529, 8, 1048578, 65529, 9, 1048577, 65529, 10, 2, 65529, 11, 5, 65529, 12, 5, 65529, 13, 5, 65529, 14, 0, 65529, 15, 5, 65529, 16, 5, 65529, 17, 5, 65529, 18, 1048578, 65529, 19, 1048577, 65530, 0, 1441797, 65530, 1, 1048579, 65530, 2, 1048579, 65530, 3, 1048579, 65530, 4, 1048579, 65530, 5, 1048579, 65530, 6, 1048579, 65530, 7, 1048579, 65530, 8, 1048581, 65530, 9, 1048577, 65530, 10, 1441797, 65530, 11, 1048579, 65530, 12, 1048579, 65530, 13, 1048579, 65530, 14, 1048579, 65530, 15, 1048579, 65530, 16, 1048579, 65530, 17, 1048579, 65530, 18, 1048581, 65530, 19, 1048577, 65531, 0, 1441797, 65531, 1, 1048579, 65531, 2, 1048579, 65531, 3, 1048579, 65531, 4, 1048579, 65531, 5, 1048579, 65531, 6, 1048579, 65531, 7, 1048579, 65531, 8, 1048581, 65531, 9, 1048577, 65531, 10, 1441797, 65531, 11, 1048579, 65531, 12, 1048579, 65531, 13, 1048579, 65531, 14, 1048579, 65531, 15, 1048579, 65531, 16, 1048579, 65531, 17, 1048579, 65531, 18, 1048581, 65531, 19, 1048577, 65532, 0, 1441797, 65532, 1, 1048579, 65532, 2, 1048579, 65532, 3, 1048579, 65532, 4, 1048579, 65532, 5, 1048579, 65532, 6, 1048579, 65532, 7, 1048579, 65532, 8, 1048581, 65532, 9, 1048577, 65532, 10, 1441797, 65532, 11, 1048579, 65532, 12, 1048579, 65532, 13, 1048579, 65532, 14, 1048579, 65532, 15, 1048579, 65532, 16, 1048579, 65532, 17, 1048579, 65532, 18, 1048581, 65532, 19, 1048577, 65533, 0, 1441797, 65533, 1, 1048579, 65533, 2, 1048579, 65533, 3, 1048579, 65533, 4, 1048579, 65533, 5, 1048579, 65533, 6, 1048579, 65533, 7, 1048579, 65533, 8, 1048581, 65533, 9, 1048577, 65533, 10, 1441797, 65533, 11, 1048579, 65533, 12, 1048579, 65533, 13, 1048579, 65533, 14, 1048579, 65533, 15, 1048579, 65533, 16, 1048579, 65533, 17, 1048579, 65533, 18, 1048581, 65533, 19, 1048577, 65534, 0, 1441794, 65534, 1, 655365, 65534, 2, 655365, 65534, 3, 655365, 65534, 4, 655365, 65534, 5, 655365, 65534, 6, 655365, 65534, 7, 655365, 65534, 8, 655362, 65534, 9, 1048577, 65534, 10, 1441794, 65534, 11, 655365, 65534, 12, 655365, 65534, 13, 655360, 65534, 14, 655365, 65534, 15, 655365, 65534, 16, 655365, 65534, 17, 655365, 65534, 18, 655362, 65534, 19, 1048577, 65507, 65515, 4, 65507, 65516, 1, 65507, 65517, 1, 65507, 65518, 1, 65507, 65519, 1, 65507, 65520, 1, 65507, 65521, 1, 65507, 65522, 1, 65507, 65523, 1, 65507, 65524, 1, 65507, 65525, 4, 65507, 65526, 1, 65507, 65527, 1, 65507, 65528, 1, 65507, 65529, 1, 65507, 65530, 1, 65507, 65531, 1, 65507, 65532, 1, 65507, 65533, 1, 65507, 65534, 1, 65507, 65535, 4, 65508, 65515, 1048577, 65508, 65516, 2, 65508, 65517, 5, 65508, 65518, 5, 65508, 65519, 5, 65508, 65520, 5, 65508, 65521, 5, 65508, 65522, 5, 65508, 65523, 5, 65508, 65524, 1048578, 65508, 65525, 1048577, 65508, 65526, 2, 65508, 65527, 5, 65508, 65528, 5, 65508, 65529, 5, 65508, 65530, 0, 65508, 65531, 5, 65508, 65532, 5, 65508, 65533, 5, 65508, 65534, 1048578, 65508, 65535, 1048577, 65509, 65515, 1048577, 65509, 65516, 1441797, 65509, 65517, 1048579, 65509, 65518, 1048579, 65509, 65519, 1048579, 65509, 65520, 1048579, 65509, 65521, 1048579, 65509, 65522, 1048579, 65509, 65523, 1048579, 65509, 65524, 1048581, 65509, 65525, 1048577, 65509, 65526, 1441797, 65509, 65527, 1048579, 65509, 65528, 1048579, 65509, 65529, 1048579, 65509, 65530, 1048579, 65509, 65531, 1048579, 65509, 65532, 1048579, 65509, 65533, 1048579, 65509, 65534, 1048581, 65509, 65535, 1048577, 65510, 65515, 1048577, 65510, 65516, 1441797, 65510, 65517, 1048579, 65510, 65518, 1048579, 65510, 65519, 1048579, 65510, 65520, 1048579, 65510, 65521, 1048579, 65510, 65522, 1048579, 65510, 65523, 1048579, 65510, 65524, 1048581, 65510, 65525, 1048577, 65510, 65526, 1441792, 65510, 65527, 1048579, 65510, 65528, 1048579, 65510, 65529, 1048579, 65510, 65530, 1048579, 65510, 65531, 1048579, 65510, 65532, 1048579, 65510, 65533, 1048579, 65510, 65534, 1048581, 65510, 65535, 1048577, 65511, 65515, 1048577, 65511, 65516, 1441797, 65511, 65517, 1048579, 65511, 65518, 1048579, 65511, 65519, 1048579, 65511, 65520, 1048579, 65511, 65521, 1048579, 65511, 65522, 1048579, 65511, 65523, 1048579, 65511, 65524, 1048581, 65511, 65525, 1048577, 65511, 65526, 1441797, 65511, 65527, 1048579, 65511, 65528, 1048579, 65511, 65529, 1048579, 65511, 65530, 1048579, 65511, 65531, 1048579, 65511, 65532, 1048579, 65511, 65533, 1048579, 65511, 65534, 1048581, 65511, 65535, 1048577, 65512, 65515, 1048577, 65512, 65516, 1441797, 65512, 65517, 1048579, 65512, 65518, 1048579, 65512, 65519, 1048579, 65512, 65520, 1048579, 65512, 65521, 1048579, 65512, 65522, 1048579, 65512, 65523, 1048579, 65512, 65524, 1048581, 65512, 65525, 1048577, 65512, 65526, 1441797, 65512, 65527, 1048579, 65512, 65528, 1048579, 65512, 65529, 1048579, 65512, 65530, 1048579, 65512, 65531, 1048579, 65512, 65532, 1048579, 65512, 65533, 1048579, 65512, 65534, 1048581, 65512, 65535, 1048577, 65513, 65515, 1048577, 65513, 65516, 1441794, 65513, 65517, 655365, 65513, 65518, 655365, 65513, 65519, 655365, 65513, 65520, 655365, 65513, 65521, 655365, 65513, 65522, 655365, 65513, 65523, 655365, 65513, 65524, 655362, 65513, 65525, 1048577, 65513, 65526, 1441794, 65513, 65527, 655365, 65513, 65528, 655365, 65513, 65529, 655365, 65513, 65530, 655365, 65513, 65531, 655365, 65513, 65532, 655365, 65513, 65533, 655360, 65513, 65534, 655362, 65513, 65535, 1048577, 65514, 65515, 4, 65514, 65516, 1, 65514, 65517, 1, 65514, 65518, 1, 65514, 65519, 1, 65514, 65520, 1, 65514, 65521, 1, 65514, 65522, 1, 65514, 65523, 1, 65514, 65524, 1, 65514, 65525, 4, 65514, 65526, 1, 65514, 65527, 1, 65514, 65528, 1, 65514, 65529, 1, 65514, 65530, 1, 65514, 65531, 1, 65514, 65532, 1, 65514, 65533, 1, 65514, 65534, 1, 65514, 65535, 4, 65515, 65515, 1048577, 65515, 65516, 2, 65515, 65517, 5, 65515, 65518, 5, 65515, 65519, 5, 65515, 65520, 0, 65515, 65521, 5, 65515, 65522, 5, 65515, 65523, 5, 65515, 65524, 1048578, 65515, 65525, 1048577, 65515, 65526, 2, 65515, 65527, 5, 65515, 65528, 5, 65515, 65529, 5, 65515, 65530, 5, 65515, 65531, 5, 65515, 65532, 5, 65515, 65533, 5, 65515, 65534, 1048578, 65515, 65535, 1048577, 65516, 65515, 1048577, 65516, 65516, 1441797, 65516, 65517, 1048579, 65516, 65518, 1048579, 65516, 65519, 1048579, 65516, 65520, 1048579, 65516, 65521, 1048579, 65516, 65522, 1048579, 65516, 65523, 1048579, 65516, 65524, 1048581, 65516, 65525, 1048577, 65516, 65526, 1441797, 65516, 65527, 1048579, 65516, 65528, 1048579, 65516, 65529, 1048579, 65516, 65530, 1048579, 65516, 65531, 1048579, 65516, 65532, 1048579, 65516, 65533, 1048579, 65516, 65534, 1048581, 65516, 65535, 1048577, 65517, 65515, 1048577, 65517, 65516, 1441797, 65517, 65517, 1048579, 65517, 65518, 1048579, 65517, 65519, 1048579, 65517, 65520, 1048579, 65517, 65521, 1048579, 65517, 65522, 1048579, 65517, 65523, 1048579, 65517, 65524, 1048581, 65517, 65525, 1048577, 65517, 65526, 1441797, 65517, 65527, 1048579, 65517, 65528, 1048579, 65517, 65529, 1048579, 65517, 65530, 1048579, 65517, 65531, 1048579, 65517, 65532, 1048579, 65517, 65533, 1048579, 65517, 65534, 1048581, 65517, 65535, 1048577, 65518, 65515, 1048577, 65518, 65516, 1441792, 65518, 65517, 1048579, 65518, 65518, 1048579, 65518, 65519, 1048579, 65518, 65520, 1048579, 65518, 65521, 1048579, 65518, 65522, 1048579, 65518, 65523, 1048579, 65518, 65524, 1048581, 65518, 65525, 1048577, 65518, 65526, 1441797, 65518, 65527, 1048579, 65518, 65528, 1048579, 65518, 65529, 1048579, 65518, 65530, 1048579, 65518, 65531, 1048579, 65518, 65532, 1048579, 65518, 65533, 1048579, 65518, 65534, 1048581, 65518, 65535, 1048577, 65519, 65515, 1048577, 65519, 65516, 1441797, 65519, 65517, 1048579, 65519, 65518, 1048579, 65519, 65519, 1048579, 65519, 65520, 1048579, 65519, 65521, 1048579, 65519, 65522, 1048579, 65519, 65523, 1048579, 65519, 65524, 1048581, 65519, 65525, 1048577, 65519, 65526, 1441797, 65519, 65527, 1048579, 65519, 65528, 1048579, 65519, 65529, 1048579, 65519, 65530, 1048579, 65519, 65531, 1048579, 65519, 65532, 1048579, 65519, 65533, 1048579, 65519, 65534, 1048581, 65519, 65535, 1048577, 65520, 65515, 1048577, 65520, 65516, 1441794, 65520, 65517, 655365, 65520, 65518, 655365, 65520, 65519, 655365, 65520, 65520, 655360, 65520, 65521, 655365, 65520, 65522, 655365, 65520, 65523, 655365, 65520, 65524, 655362, 65520, 65525, 1048577, 65520, 65526, 1441794, 65520, 65527, 655365, 65520, 65528, 655365, 65520, 65529, 655365, 65520, 65530, 655365, 65520, 65531, 655365, 65520, 65532, 655365, 65520, 65533, 655365, 65520, 65534, 655362, 65520, 65535, 1048577, 65521, 65515, 4, 65521, 65516, 1, 65521, 65517, 1, 65521, 65518, 1, 65521, 65519, 1, 65521, 65520, 1, 65521, 65521, 1, 65521, 65522, 1, 65521, 65523, 1, 65521, 65524, 1, 65521, 65525, 4, 65521, 65526, 1, 65521, 65527, 1, 65521, 65528, 1, 65521, 65529, 1, 65521, 65530, 1, 65521, 65531, 1, 65521, 65532, 1, 65521, 65533, 1, 65521, 65534, 1, 65521, 65535, 4, 65522, 65515, 1048577, 65522, 65516, 2, 65522, 65517, 5, 65522, 65518, 5, 65522, 65519, 5, 65522, 65520, 5, 65522, 65521, 5, 65522, 65522, 5, 65522, 65523, 5, 65522, 65524, 1048578, 65522, 65525, 1048577, 65522, 65526, 2, 65522, 65527, 5, 65522, 65528, 5, 65522, 65529, 5, 65522, 65530, 5, 65522, 65531, 5, 65522, 65532, 5, 65522, 65533, 5, 65522, 65534, 1048578, 65522, 65535, 1048577, 65523, 65515, 1048577, 65523, 65516, 1441797, 65523, 65517, 1048579, 65523, 65518, 1048579, 65523, 65519, 1048579, 65523, 65520, 1048579, 65523, 65521, 1048579, 65523, 65522, 1048579, 65523, 65523, 1048579, 65523, 65524, 1048581, 65523, 65525, 1048577, 65523, 65526, 1441797, 65523, 65527, 1048579, 65523, 65528, 1048579, 65523, 65529, 1048579, 65523, 65530, 1048579, 65523, 65531, 1048579, 65523, 65532, 1048579, 65523, 65533, 1048579, 65523, 65534, 1048581, 65523, 65535, 1048577, 65524, 65515, 1048577, 65524, 65516, 1441797, 65524, 65517, 1048579, 65524, 65518, 1048579, 65524, 65519, 1048579, 65524, 65520, 1048579, 65524, 65521, 1048579, 65524, 65522, 1048579, 65524, 65523, 1048579, 65524, 65524, 1048581, 65524, 65525, 1048577, 65524, 65526, 1441797, 65524, 65527, 1048579, 65524, 65528, 1048579, 65524, 65529, 1048579, 65524, 65530, 1048579, 65524, 65531, 1048579, 65524, 65532, 1048579, 65524, 65533, 1048579, 65524, 65534, 1048581, 65524, 65535, 1048577, 65525, 65515, 1048577, 65525, 65516, 1441797, 65525, 65517, 1048579, 65525, 65518, 1048579, 65525, 65519, 1048579, 65525, 65520, 1048579, 65525, 65521, 1048579, 65525, 65522, 1048579, 65525, 65523, 1048579, 65525, 65524, 1048581, 65525, 65525, 1048577, 65525, 65526, 1441797, 65525, 65527, 1048579, 65525, 65528, 1048579, 65525, 65529, 1048579, 65525, 65530, 1048579, 65525, 65531, 1048579, 65525, 65532, 1048579, 65525, 65533, 1048579, 65525, 65534, 1048581, 65525, 65535, 1048577, 65526, 65515, 1048577, 65526, 65516, 1441797, 65526, 65517, 1048579, 65526, 65518, 1048579, 65526, 65519, 1048579, 65526, 65520, 1048579, 65526, 65521, 1048579, 65526, 65522, 1048579, 65526, 65523, 1048579, 65526, 65524, 1048581, 65526, 65525, 1048577, 65526, 65526, 1441792, 65526, 65527, 1048579, 65526, 65528, 1048579, 65526, 65529, 1048579, 65526, 65530, 1048579, 65526, 65531, 1048579, 65526, 65532, 1048579, 65526, 65533, 1048579, 65526, 65534, 1048581, 65526, 65535, 1048577, 65527, 65515, 1048577, 65527, 65516, 1441794, 65527, 65517, 655365, 65527, 65518, 655365, 65527, 65519, 655365, 65527, 65520, 655365, 65527, 65521, 655365, 65527, 65522, 655365, 65527, 65523, 655365, 65527, 65524, 655362, 65527, 65525, 1048577, 65527, 65526, 1441794, 65527, 65527, 655365, 65527, 65528, 655365, 65527, 65529, 655365, 65527, 65530, 655365, 65527, 65531, 655365, 65527, 65532, 655365, 65527, 65533, 655365, 65527, 65534, 655362, 65527, 65535, 1048577, 65528, 65515, 4, 65528, 65516, 1, 65528, 65517, 1, 65528, 65518, 1, 65528, 65519, 1, 65528, 65520, 1, 65528, 65521, 1, 65528, 65522, 1, 65528, 65523, 1, 65528, 65524, 1, 65528, 65525, 4, 65528, 65526, 1, 65528, 65527, 1, 65528, 65528, 1, 65528, 65529, 1, 65528, 65530, 1, 65528, 65531, 1, 65528, 65532, 1, 65528, 65533, 1, 65528, 65534, 1, 65528, 65535, 4, 65529, 65515, 1048577, 65529, 65516, 2, 65529, 65517, 5, 65529, 65518, 5, 65529, 65519, 0, 65529, 65520, 5, 65529, 65521, 5, 65529, 65522, 5, 65529, 65523, 5, 65529, 65524, 1048578, 65529, 65525, 1048577, 65529, 65526, 2, 65529, 65527, 5, 65529, 65528, 5, 65529, 65529, 5, 65529, 65530, 5, 65529, 65531, 5, 65529, 65532, 5, 65529, 65533, 5, 65529, 65534, 1048578, 65529, 65535, 1048577, 65530, 65515, 1048577, 65530, 65516, 1441797, 65530, 65517, 1048579, 65530, 65518, 1048579, 65530, 65519, 1048579, 65530, 65520, 1048579, 65530, 65521, 1048579, 65530, 65522, 1048579, 65530, 65523, 1048579, 65530, 65524, 1048581, 65530, 65525, 1048577, 65530, 65526, 1441797, 65530, 65527, 1048579, 65530, 65528, 1048579, 65530, 65529, 1048579, 65530, 65530, 1048579, 65530, 65531, 1048579, 65530, 65532, 1048579, 65530, 65533, 1048579, 65530, 65534, 1048581, 65530, 65535, 1048577, 65531, 65515, 1048577, 65531, 65516, 1441792, 65531, 65517, 1048579, 65531, 65518, 1048579, 65531, 65519, 1048579, 65531, 65520, 1048579, 65531, 65521, 1048579, 65531, 65522, 1048579, 65531, 65523, 1048579, 65531, 65524, 1048576, 65531, 65525, 1048577, 65531, 65526, 1441797, 65531, 65527, 1048579, 65531, 65528, 1048579, 65531, 65529, 1048579, 65531, 65530, 1048579, 65531, 65531, 1048579, 65531, 65532, 1048579, 65531, 65533, 1048579, 65531, 65534, 1048581, 65531, 65535, 1048577, 65532, 65515, 1048577, 65532, 65516, 1441797, 65532, 65517, 1048579, 65532, 65518, 1048579, 65532, 65519, 1048579, 65532, 65520, 1048579, 65532, 65521, 1048579, 65532, 65522, 1048579, 65532, 65523, 1048579, 65532, 65524, 1048581, 65532, 65525, 1048577, 65532, 65526, 1441797, 65532, 65527, 1048579, 65532, 65528, 1048579, 65532, 65529, 1048579, 65532, 65530, 1048579, 65532, 65531, 1048579, 65532, 65532, 1048579, 65532, 65533, 1048579, 65532, 65534, 1048581, 65532, 65535, 1048577, 65533, 65515, 1048577, 65533, 65516, 1441797, 65533, 65517, 1048579, 65533, 65518, 1048579, 65533, 65519, 1048579, 65533, 65520, 1048579, 65533, 65521, 1048579, 65533, 65522, 1048579, 65533, 65523, 1048579, 65533, 65524, 1048581, 65533, 65525, 1048577, 65533, 65526, 1441797, 65533, 65527, 1048579, 65533, 65528, 1048579, 65533, 65529, 1048579, 65533, 65530, 1048579, 65533, 65531, 1048579, 65533, 65532, 1048579, 65533, 65533, 1048579, 65533, 65534, 1048581, 65533, 65535, 1048577, 65534, 65515, 1048577, 65534, 65516, 1441794, 65534, 65517, 655365, 65534, 65518, 655365, 65534, 65519, 655365, 65534, 65520, 655365, 65534, 65521, 655365, 65534, 65522, 655365, 65534, 65523, 655365, 65534, 65524, 655362, 65534, 65525, 1048577, 65534, 65526, 1441794, 65534, 65527, 655365, 65534, 65528, 655365, 65534, 65529, 655365, 65534, 65530, 655360, 65534, 65531, 655365, 65534, 65532, 655365, 65534, 65533, 655365, 65534, 65534, 655362, 65534, 65535, 1048577, 65535, 65515, 4, 65535, 65516, 1, 65535, 65517, 1, 65535, 65518, 1, 65535, 65519, 1, 65535, 65520, 1, 65535, 65521, 1, 65535, 65522, 1, 65535, 65523, 1, 65535, 65524, 1, 0, 65515, 1048577, 0, 65516, 2, 0, 65517, 5, 0, 65518, 5, 0, 65519, 5, 0, 65520, 5, 0, 65521, 5, 0, 65522, 5, 0, 65523, 5, 0, 65524, 1048578, 1, 65515, 1048577, 1, 65516, 1441797, 1, 65517, 1048579, 1, 65518, 1048579, 1, 65519, 1048579, 1, 65520, 1048579, 1, 65521, 1048579, 1, 65522, 1048579, 1, 65523, 1048579, 1, 65524, 1048581, 2, 65515, 1048577, 2, 65516, 1441797, 2, 65517, 1048579, 2, 65518, 1048579, 2, 65519, 1048579, 2, 65520, 1048579, 2, 65521, 1048579, 2, 65522, 1048579, 2, 65523, 1048579, 2, 65524, 1048581, 3, 65515, 1048577, 3, 65516, 1441797, 3, 65517, 1048579, 3, 65518, 1048579, 3, 65519, 1048579, 3, 65520, 1048579, 3, 65521, 1048579, 3, 65522, 1048579, 3, 65523, 1048579, 3, 65524, 1048581, 4, 65515, 1048577, 4, 65516, 1441797, 4, 65517, 1048579, 4, 65518, 1048579, 4, 65519, 1048579, 4, 65520, 1048579, 4, 65521, 1048579, 4, 65522, 1048579, 4, 65523, 1048579, 4, 65524, 1048581, 5, 65515, 1048577, 5, 65516, 1441794, 5, 65517, 655365, 5, 65518, 655365, 5, 65519, 655365, 5, 65520, 655365, 5, 65521, 655365, 5, 65522, 655365, 5, 65523, 655365, 5, 65524, 655362, 6, 65515, 4, 6, 65516, 1, 6, 65517, 1, 6, 65518, 1, 6, 65519, 1, 6, 65520, 1, 6, 65521, 1, 6, 65522, 1, 6, 65523, 1, 6, 65524, 1, 7, 65515, 1048577, 7, 65516, 2, 7, 65517, 5, 7, 65518, 5, 7, 65519, 5, 7, 65520, 5, 7, 65521, 5, 7, 65522, 5, 7, 65523, 0, 7, 65524, 1048578, 8, 65515, 1048577, 8, 65516, 1441797, 8, 65517, 1048579, 8, 65518, 1048579, 8, 65519, 1048579, 8, 65520, 1048579, 8, 65521, 1048579, 8, 65522, 1048579, 8, 65523, 1048579, 8, 65524, 1048581, 9, 65515, 1048577, 9, 65516, 1441797, 9, 65517, 1048579, 9, 65518, 1048579, 9, 65519, 1048579, 9, 65520, 1048579, 9, 65521, 1048579, 9, 65522, 1048579, 9, 65523, 1048579, 9, 65524, 1048581, 10, 65515, 1048577, 10, 65516, 1441797, 10, 65517, 1048579, 10, 65518, 1048579, 10, 65519, 1048579, 10, 65520, 1048579, 10, 65521, 1048579, 10, 65522, 1048579, 10, 65523, 1048579, 10, 65524, 1048576, 11, 65515, 1048577, 11, 65516, 1441797, 11, 65517, 1048579, 11, 65518, 1048579, 11, 65519, 1048579, 11, 65520, 1048579, 11, 65521, 1048579, 11, 65522, 1048579, 11, 65523, 1048579, 11, 65524, 1048581, 12, 65515, 1048577, 12, 65516, 1441794, 12, 65517, 655365, 12, 65518, 655365, 12, 65519, 655365, 12, 65520, 655365, 12, 65521, 655360, 12, 65522, 655365, 12, 65523, 655365, 12, 65524, 655362, 13, 65515, 4, 13, 65516, 1, 13, 65517, 1, 13, 65518, 1, 13, 65519, 1, 13, 65520, 1, 13, 65521, 1, 13, 65522, 1, 13, 65523, 1, 13, 65524, 1, 14, 65515, 1048577, 14, 65516, 2, 14, 65517, 5, 14, 65518, 5, 14, 65519, 5, 14, 65520, 5, 14, 65521, 5, 14, 65522, 5, 14, 65523, 5, 14, 65524, 1048578, 14, 65525, 1048577, 14, 65526, 2, 14, 65527, 5, 14, 65528, 5, 14, 65529, 5, 14, 65530, 5, 14, 65531, 5, 14, 65532, 5, 14, 65533, 5, 14, 65534, 1048578, 15, 65515, 1048577, 15, 65516, 1441797, 15, 65517, 1048579, 15, 65518, 1048579, 15, 65519, 1048579, 15, 65520, 1048579, 15, 65521, 1048579, 15, 65522, 1048579, 15, 65523, 1048579, 15, 65524, 1048581, 15, 65525, 1048577, 15, 65526, 1441797, 15, 65527, 1048579, 15, 65528, 1048579, 15, 65529, 1048579, 15, 65530, 1048579, 15, 65531, 1048579, 15, 65532, 1048579, 15, 65533, 1048579, 15, 65534, 1048581, 16, 65515, 1048577, 16, 65516, 1441792, 16, 65517, 1048579, 16, 65518, 1048579, 16, 65519, 1048579, 16, 65520, 1048579, 16, 65521, 1048579, 16, 65522, 1048579, 16, 65523, 1048579, 16, 65524, 1048581, 16, 65525, 1048577, 16, 65526, 1441792, 16, 65527, 1048579, 16, 65528, 1048579, 16, 65529, 1048579, 16, 65530, 1048579, 16, 65531, 1048579, 16, 65532, 1048579, 16, 65533, 1048579, 16, 65534, 1048581, 17, 65515, 1048577, 17, 65516, 1441797, 17, 65517, 1048579, 17, 65518, 1048579, 17, 65519, 1048579, 17, 65520, 1048579, 17, 65521, 1048579, 17, 65522, 1048579, 17, 65523, 1048579, 17, 65524, 1048581, 17, 65525, 1048577, 17, 65526, 1441797, 17, 65527, 1048579, 17, 65528, 1048579, 17, 65529, 1048579, 17, 65530, 1048579, 17, 65531, 1048579, 17, 65532, 1048579, 17, 65533, 1048579, 17, 65534, 1048581, 18, 65515, 1048577, 18, 65516, 1441797, 18, 65517, 1048579, 18, 65518, 1048579, 18, 65519, 1048579, 18, 65520, 1048579, 18, 65521, 1048579, 18, 65522, 1048579, 18, 65523, 1048579, 18, 65524, 1048581, 18, 65525, 1048577, 18, 65526, 1441797, 18, 65527, 1048579, 18, 65528, 1048579, 18, 65529, 1048579, 18, 65530, 1048579, 18, 65531, 1048579, 18, 65532, 1048579, 18, 65533, 1048579, 18, 65534, 1048581, 19, 65515, 1048577, 19, 65516, 1441794, 19, 65517, 655365, 19, 65518, 655365, 19, 65519, 655365, 19, 65520, 655365, 19, 65521, 655365, 19, 65522, 655365, 19, 65523, 655365, 19, 65524, 655362, 19, 65525, 1048577, 19, 65526, 1441794, 19, 65527, 655365, 19, 65528, 655365, 19, 65529, 655360, 19, 65530, 655365, 19, 65531, 655365, 19, 65532, 655365, 19, 65533, 655365, 19, 65534, 655362, 20, 65515, 4, 20, 65516, 1, 20, 65517, 1, 20, 65518, 1, 20, 65519, 1, 20, 65520, 1, 20, 65521, 1, 20, 65522, 1, 20, 65523, 1, 20, 65524, 1, 20, 65525, 4, 20, 65526, 1, 20, 65527, 1, 20, 65528, 1, 20, 65529, 1, 20, 65530, 1, 20, 65531, 1, 20, 65532, 1, 20, 65533, 1, 20, 65534, 1, 21, 65515, 1048577, 21, 65516, 2, 21, 65517, 5, 21, 65518, 5, 21, 65519, 5, 21, 65520, 5, 21, 65521, 5, 21, 65522, 5, 21, 65523, 5, 21, 65524, 1048578, 21, 65525, 1048577, 21, 65526, 2, 21, 65527, 5, 21, 65528, 5, 21, 65529, 5, 21, 65530, 5, 21, 65531, 0, 21, 65532, 5, 21, 65533, 5, 21, 65534, 1048578, 22, 65515, 1048577, 22, 65516, 1441797, 22, 65517, 1048579, 22, 65518, 1048579, 22, 65519, 1048579, 22, 65520, 1048579, 22, 65521, 1048579, 22, 65522, 1048579, 22, 65523, 1048579, 22, 65524, 1048581, 22, 65525, 1048577, 22, 65526, 1441797, 22, 65527, 1048579, 22, 65528, 1048579, 22, 65529, 1048579, 22, 65530, 1048579, 22, 65531, 1048579, 22, 65532, 1048579, 22, 65533, 1048579, 22, 65534, 1048581, 23, 65515, 1048577, 23, 65516, 1441797, 23, 65517, 1048579, 23, 65518, 1048579, 23, 65519, 1048579, 23, 65520, 1048579, 23, 65521, 1048579, 23, 65522, 1048579, 23, 65523, 1048579, 23, 65524, 1048581, 23, 65525, 1048577, 23, 65526, 1441797, 23, 65527, 1048579, 23, 65528, 1048579, 23, 65529, 1048579, 23, 65530, 1048579, 23, 65531, 1048579, 23, 65532, 1048579, 23, 65533, 1048579, 23, 65534, 1048581, 24, 65515, 1048577, 24, 65516, 1441792, 24, 65517, 1048579, 24, 65518, 1048579, 24, 65519, 1048579, 24, 65520, 1048579, 24, 65521, 1048579, 24, 65522, 1048579, 24, 65523, 1048579, 24, 65524, 1048581, 24, 65525, 1048577, 24, 65526, 1441797, 24, 65527, 1048579, 24, 65528, 1048579, 24, 65529, 1048579, 24, 65530, 1048579, 24, 65531, 1048579, 24, 65532, 1048579, 24, 65533, 1048579, 24, 65534, 1048581, 25, 65515, 1048577, 25, 65516, 1441797, 25, 65517, 1048579, 25, 65518, 1048579, 25, 65519, 1048579, 25, 65520, 1048579, 25, 65521, 1048579, 25, 65522, 1048579, 25, 65523, 1048579, 25, 65524, 1048581, 25, 65525, 1048577, 25, 65526, 1441797, 25, 65527, 1048579, 25, 65528, 1048579, 25, 65529, 1048579, 25, 65530, 1048579, 25, 65531, 1048579, 25, 65532, 1048579, 25, 65533, 1048579, 25, 65534, 1048581, 26, 65515, 1048577, 26, 65516, 1441794, 26, 65517, 655365, 26, 65518, 655365, 26, 65519, 655365, 26, 65520, 655365, 26, 65521, 655365, 26, 65522, 655365, 26, 65523, 655365, 26, 65524, 655362, 26, 65525, 1048577, 26, 65526, 1441794, 26, 65527, 655365, 26, 65528, 655365, 26, 65529, 655365, 26, 65530, 655365, 26, 65531, 655365, 26, 65532, 655365, 26, 65533, 655365, 26, 65534, 655362, 27, 65515, 4, 27, 65516, 1, 27, 65517, 1, 27, 65518, 1, 27, 65519, 1, 27, 65520, 1, 27, 65521, 1, 27, 65522, 1, 27, 65523, 1, 27, 65524, 1, 27, 65525, 4, 27, 65526, 1, 27, 65527, 1, 27, 65528, 1, 27, 65529, 1, 27, 65530, 1, 27, 65531, 1, 27, 65532, 1, 27, 65533, 1, 27, 65534, 1)
}
metadata/_editor_floor_ = Vector3(0, 0, 0)

[node name="CultBlock" type="Node3D" parent="."]

[node name="CultSquare" type="Node3D" parent="CultBlock"]

[node name="Cult" parent="CultBlock/CultSquare" instance=ExtResource("2_8mebr")]
transform = Transform3D(1, 0, 0, 0, 1, 0, 0, 0, 1, 25, 0, -22)

[node name="Building" parent="CultBlock/CultSquare" instance=ExtResource("3_eeelo")]
transform = Transform3D(-1, 0, -8.74228e-08, 0, 1, 0, 8.74228e-08, 0, -1, 11, 1, -21)

[node name="Dumpster" parent="CultBlock/CultSquare" instance=ExtResource("4_fa388")]
transform = Transform3D(1, 0, 0, 0, 1, 0, 0, 0, 1, 18.7, 1, -30.9)

[node name="Dumpster2" parent="CultBlock/CultSquare" instance=ExtResource("4_fa388")]
transform = Transform3D(-4.37114e-08, 0, -1, 0, 1, 0, 1, 0, -4.37114e-08, 28, 1, -13.3)

[node name="Square" type="Node3D" parent="CultBlock"]
transform = Transform3D(1, 0, 0, 0, 1, 0, 0, 0, 1, 43, 0, -60)

[node name="Building" parent="CultBlock/Square" instance=ExtResource("3_eeelo")]
transform = Transform3D(1, 0, 0, 0, 1, 0, 0, 0, 1, 25, 0, 16)

[node name="Building4" parent="CultBlock/Square" instance=ExtResource("3_eeelo")]
transform = Transform3D(1, 0, 0, 0, 1, 0, 0, 0, 1, 25, 0, 38)

[node name="Building2" parent="CultBlock/Square" instance=ExtResource("3_eeelo")]
transform = Transform3D(-1, 0, -8.74228e-08, 0, 1, 0, 8.74228e-08, 0, -1, 11, 0, 16)

[node name="Building3" parent="CultBlock/Square" instance=ExtResource("3_eeelo")]
transform = Transform3D(-1, 0, -8.74228e-08, 0, 1, 0, 8.74228e-08, 0, -1, 11, 0, 38)

[node name="Dumpster" parent="CultBlock/Square" instance=ExtResource("4_fa388")]
transform = Transform3D(-4.37114e-08, 0, 1, 0, 1, 0, -1, 0, -4.37114e-08, 13, 0, 4.3)

[node name="Square2" type="Node3D" parent="CultBlock"]
transform = Transform3D(1, 0, 0, 0, 1, 0, 0, 0, 1, 84, 0, -60)

[node name="Building" parent="CultBlock/Square2" instance=ExtResource("3_eeelo")]
transform = Transform3D(1, 0, 0, 0, 1, 0, 0, 0, 1, 25, 0, 16)

[node name="Building4" parent="CultBlock/Square2" instance=ExtResource("3_eeelo")]
transform = Transform3D(1, 0, 0, 0, 1, 0, 0, 0, 1, 25, 0, 38)

[node name="Building2" parent="CultBlock/Square2" instance=ExtResource("3_eeelo")]
transform = Transform3D(-1, 0, -8.74228e-08, 0, 1, 0, 8.74228e-08, 0, -1, 11, 0, 16)

[node name="Building3" parent="CultBlock/Square2" instance=ExtResource("3_eeelo")]
transform = Transform3D(-1, 0, -8.74228e-08, 0, 1, 0, 8.74228e-08, 0, -1, 11, 0, 38)

[node name="Dumpster" parent="CultBlock/Square2" instance=ExtResource("4_fa388")]
transform = Transform3D(-4.37114e-08, 0, 1, 0, 1, 0, -1, 0, -4.37114e-08, 13, 0, 4.3)

[node name="Square3" type="Node3D" parent="CultBlock"]
transform = Transform3D(1, 0, 0, 0, 1, 0, 0, 0, 1, 127, 0, -60)

[node name="Building" parent="CultBlock/Square3" instance=ExtResource("3_eeelo")]
transform = Transform3D(1, 0, 0, 0, 1, 0, 0, 0, 1, 25, 0, 16)

[node name="Building4" parent="CultBlock/Square3" instance=ExtResource("3_eeelo")]
transform = Transform3D(1, 0, 0, 0, 1, 0, 0, 0, 1, 25, 0, 38)

[node name="Building2" parent="CultBlock/Square3" instance=ExtResource("3_eeelo")]
transform = Transform3D(-1, 0, -8.74228e-08, 0, 1, 0, 8.74228e-08, 0, -1, 11, 0, 16)

[node name="Building3" parent="CultBlock/Square3" instance=ExtResource("3_eeelo")]
transform = Transform3D(-1, 0, -8.74228e-08, 0, 1, 0, 8.74228e-08, 0, -1, 11, 0, 38)

[node name="Dumpster" parent="CultBlock/Square3" instance=ExtResource("4_fa388")]
transform = Transform3D(-4.37114e-08, 0, 1, 0, 1, 0, -1, 0, -4.37114e-08, 13, 0, 4.3)

[node name="Square4" type="Node3D" parent="CultBlock"]
transform = Transform3D(1, 0, 0, 0, 1, 0, 0, 0, 1, 43, 0, -120)

[node name="Building" parent="CultBlock/Square4" instance=ExtResource("3_eeelo")]
transform = Transform3D(1, 0, 0, 0, 1, 0, 0, 0, 1, 25, 0, 16)

[node name="Building4" parent="CultBlock/Square4" instance=ExtResource("3_eeelo")]
transform = Transform3D(1, 0, 0, 0, 1, 0, 0, 0, 1, 25, 0, 38)

[node name="Building2" parent="CultBlock/Square4" instance=ExtResource("3_eeelo")]
transform = Transform3D(-1, 0, -8.74228e-08, 0, 1, 0, 8.74228e-08, 0, -1, 11, 0, 16)

[node name="Building3" parent="CultBlock/Square4" instance=ExtResource("3_eeelo")]
transform = Transform3D(-1, 0, -8.74228e-08, 0, 1, 0, 8.74228e-08, 0, -1, 11, 0, 38)

[node name="Dumpster" parent="CultBlock/Square4" instance=ExtResource("4_fa388")]
transform = Transform3D(-4.37114e-08, 0, 1, 0, 1, 0, -1, 0, -4.37114e-08, 13, 0, 4.3)

[node name="Square5" type="Node3D" parent="CultBlock"]
transform = Transform3D(1, 0, 0, 0, 1, 0, 0, 0, 1, 84, 0, -120)

[node name="Building" parent="CultBlock/Square5" instance=ExtResource("3_eeelo")]
transform = Transform3D(1, 0, 0, 0, 1, 0, 0, 0, 1, 25, 0, 16)

[node name="Building4" parent="CultBlock/Square5" instance=ExtResource("3_eeelo")]
transform = Transform3D(1, 0, 0, 0, 1, 0, 0, 0, 1, 25, 0, 38)

[node name="Building2" parent="CultBlock/Square5" instance=ExtResource("3_eeelo")]
transform = Transform3D(-1, 0, -8.74228e-08, 0, 1, 0, 8.74228e-08, 0, -1, 11, 0, 16)

[node name="Building3" parent="CultBlock/Square5" instance=ExtResource("3_eeelo")]
transform = Transform3D(-1, 0, -8.74228e-08, 0, 1, 0, 8.74228e-08, 0, -1, 11, 0, 38)

[node name="Dumpster" parent="CultBlock/Square5" instance=ExtResource("4_fa388")]
transform = Transform3D(-4.37114e-08, 0, 1, 0, 1, 0, -1, 0, -4.37114e-08, 13, 0, 4.3)

[node name="Square6" type="Node3D" parent="CultBlock"]
transform = Transform3D(1, 0, 0, 0, 1, 0, 0, 0, 1, 127, 0, -120)

[node name="Building" parent="CultBlock/Square6" instance=ExtResource("3_eeelo")]
transform = Transform3D(1, 0, 0, 0, 1, 0, 0, 0, 1, 25, 0, 16)

[node name="Building4" parent="CultBlock/Square6" instance=ExtResource("3_eeelo")]
transform = Transform3D(1, 0, 0, 0, 1, 0, 0, 0, 1, 25, 0, 38)

[node name="Building2" parent="CultBlock/Square6" instance=ExtResource("3_eeelo")]
transform = Transform3D(-1, 0, -8.74228e-08, 0, 1, 0, 8.74228e-08, 0, -1, 11, 0, 16)

[node name="Building3" parent="CultBlock/Square6" instance=ExtResource("3_eeelo")]
transform = Transform3D(-1, 0, -8.74228e-08, 0, 1, 0, 8.74228e-08, 0, -1, 11, 0, 38)

[node name="Dumpster" parent="CultBlock/Square6" instance=ExtResource("4_fa388")]
transform = Transform3D(-4.37114e-08, 0, 1, 0, 1, 0, -1, 0, -4.37114e-08, 13, 0, 4.3)

[node name="Square7" type="Node3D" parent="CultBlock"]
transform = Transform3D(1, 0, 0, 0, 1, 0, 0, 0, 1, 1, 0, -120)

[node name="Building" parent="CultBlock/Square7" instance=ExtResource("3_eeelo")]
transform = Transform3D(1, 0, 0, 0, 1, 0, 0, 0, 1, 25, 0, 16)

[node name="Building4" parent="CultBlock/Square7" instance=ExtResource("3_eeelo")]
transform = Transform3D(1, 0, 0, 0, 1, 0, 0, 0, 1, 25, 0, 38)

[node name="Building2" parent="CultBlock/Square7" instance=ExtResource("3_eeelo")]
transform = Transform3D(-1, 0, -8.74228e-08, 0, 1, 0, 8.74228e-08, 0, -1, 11, 0, 16)

[node name="Building3" parent="CultBlock/Square7" instance=ExtResource("3_eeelo")]
transform = Transform3D(-1, 0, -8.74228e-08, 0, 1, 0, 8.74228e-08, 0, -1, 11, 0, 38)

[node name="Dumpster" parent="CultBlock/Square7" instance=ExtResource("4_fa388")]
transform = Transform3D(-4.37114e-08, 0, 1, 0, 1, 0, -1, 0, -4.37114e-08, 13, 0, 4.3)

[node name="Block" type="Node3D" parent="."]

[node name="Square" type="Node3D" parent="Block"]

[node name="Building" parent="Block/Square" instance=ExtResource("3_eeelo")]
transform = Transform3D(1, 0, 0, 0, 1, 0, 0, 0, 1, 25, 0, 16)

[node name="Building4" parent="Block/Square" instance=ExtResource("3_eeelo")]
transform = Transform3D(1, 0, 0, 0, 1, 0, 0, 0, 1, 25, 0, 38)

[node name="Building2" parent="Block/Square" instance=ExtResource("3_eeelo")]
transform = Transform3D(-1, 0, -8.74228e-08, 0, 1, 0, 8.74228e-08, 0, -1, 11, 0, 16)

[node name="Building3" parent="Block/Square" instance=ExtResource("3_eeelo")]
transform = Transform3D(-1, 0, -8.74228e-08, 0, 1, 0, 8.74228e-08, 0, -1, 11, 0, 38)

[node name="Dumpster" parent="Block/Square" instance=ExtResource("4_fa388")]
transform = Transform3D(-4.37114e-08, 0, 1, 0, 1, 0, -1, 0, -4.37114e-08, 13, 0, 4.3)

[node name="Square2" type="Node3D" parent="Block"]
transform = Transform3D(1, 0, 0, 0, 1, 0, 0, 0, 1, 43, 0, 0)

[node name="Building" parent="Block/Square2" instance=ExtResource("3_eeelo")]
transform = Transform3D(1, 0, 0, 0, 1, 0, 0, 0, 1, 25, 0, 16)

[node name="Building4" parent="Block/Square2" instance=ExtResource("3_eeelo")]
transform = Transform3D(1, 0, 0, 0, 1, 0, 0, 0, 1, 25, 0, 38)

[node name="Building2" parent="Block/Square2" instance=ExtResource("3_eeelo")]
transform = Transform3D(-1, 0, -8.74228e-08, 0, 1, 0, 8.74228e-08, 0, -1, 11, 0, 16)

[node name="Building3" parent="Block/Square2" instance=ExtResource("3_eeelo")]
transform = Transform3D(-1, 0, -8.74228e-08, 0, 1, 0, 8.74228e-08, 0, -1, 11, 0, 38)

[node name="Dumpster" parent="Block/Square2" instance=ExtResource("4_fa388")]
transform = Transform3D(-4.37114e-08, 0, 1, 0, 1, 0, -1, 0, -4.37114e-08, 13, 0, 4.3)

[node name="Square3" type="Node3D" parent="Block"]
transform = Transform3D(1, 0, 0, 0, 1, 0, 0, 0, 1, 84, 0, 0)

[node name="Building" parent="Block/Square3" instance=ExtResource("3_eeelo")]
transform = Transform3D(1, 0, 0, 0, 1, 0, 0, 0, 1, 25, 0, 16)

[node name="Building4" parent="Block/Square3" instance=ExtResource("3_eeelo")]
transform = Transform3D(1, 0, 0, 0, 1, 0, 0, 0, 1, 25, 0, 38)

[node name="Building2" parent="Block/Square3" instance=ExtResource("3_eeelo")]
transform = Transform3D(-1, 0, -8.74228e-08, 0, 1, 0, 8.74228e-08, 0, -1, 11, 0, 16)

[node name="Building3" parent="Block/Square3" instance=ExtResource("3_eeelo")]
transform = Transform3D(-1, 0, -8.74228e-08, 0, 1, 0, 8.74228e-08, 0, -1, 11, 0, 38)

[node name="Dumpster" parent="Block/Square3" instance=ExtResource("4_fa388")]
transform = Transform3D(-4.37114e-08, 0, 1, 0, 1, 0, -1, 0, -4.37114e-08, 13, 0, 4.3)

[node name="Square4" type="Node3D" parent="Block"]
transform = Transform3D(1, 0, 0, 0, 1, 0, 0, 0, 1, 127, 0, 0)

[node name="Building" parent="Block/Square4" instance=ExtResource("3_eeelo")]
transform = Transform3D(1, 0, 0, 0, 1, 0, 0, 0, 1, 25, 0, 16)

[node name="Building4" parent="Block/Square4" instance=ExtResource("3_eeelo")]
transform = Transform3D(1, 0, 0, 0, 1, 0, 0, 0, 1, 25, 0, 38)

[node name="Building2" parent="Block/Square4" instance=ExtResource("3_eeelo")]
transform = Transform3D(-1, 0, -8.74228e-08, 0, 1, 0, 8.74228e-08, 0, -1, 11, 0, 16)

[node name="Building3" parent="Block/Square4" instance=ExtResource("3_eeelo")]
transform = Transform3D(-1, 0, -8.74228e-08, 0, 1, 0, 8.74228e-08, 0, -1, 11, 0, 38)

[node name="Dumpster" parent="Block/Square4" instance=ExtResource("4_fa388")]
transform = Transform3D(-4.37114e-08, 0, 1, 0, 1, 0, -1, 0, -4.37114e-08, 13, 0, 4.3)

[node name="Square5" type="Node3D" parent="Block"]
transform = Transform3D(1, 0, 0, 0, 1, 0, 0, 0, 1, 127, 0, 59)

[node name="Building" parent="Block/Square5" instance=ExtResource("3_eeelo")]
transform = Transform3D(1, 0, 0, 0, 1, 0, 0, 0, 1, 25, 0, 16)

[node name="Building4" parent="Block/Square5" instance=ExtResource("3_eeelo")]
transform = Transform3D(1, 0, 0, 0, 1, 0, 0, 0, 1, 25, 0, 38)

[node name="Building2" parent="Block/Square5" instance=ExtResource("3_eeelo")]
transform = Transform3D(-1, 0, -8.74228e-08, 0, 1, 0, 8.74228e-08, 0, -1, 11, 0, 16)

[node name="Building3" parent="Block/Square5" instance=ExtResource("3_eeelo")]
transform = Transform3D(-1, 0, -8.74228e-08, 0, 1, 0, 8.74228e-08, 0, -1, 11, 0, 38)

[node name="Dumpster" parent="Block/Square5" instance=ExtResource("4_fa388")]
transform = Transform3D(-4.37114e-08, 0, 1, 0, 1, 0, -1, 0, -4.37114e-08, 13, 0, 4.3)

[node name="Square6" type="Node3D" parent="Block"]
transform = Transform3D(1, 0, 0, 0, 1, 0, 0, 0, 1, 85, 0, 59)

[node name="Building" parent="Block/Square6" instance=ExtResource("3_eeelo")]
transform = Transform3D(1, 0, 0, 0, 1, 0, 0, 0, 1, 25, 0, 16)

[node name="Building4" parent="Block/Square6" instance=ExtResource("3_eeelo")]
transform = Transform3D(1, 0, 0, 0, 1, 0, 0, 0, 1, 25, 0, 38)

[node name="Building2" parent="Block/Square6" instance=ExtResource("3_eeelo")]
transform = Transform3D(-1, 0, -8.74228e-08, 0, 1, 0, 8.74228e-08, 0, -1, 11, 0, 16)

[node name="Building3" parent="Block/Square6" instance=ExtResource("3_eeelo")]
transform = Transform3D(-1, 0, -8.74228e-08, 0, 1, 0, 8.74228e-08, 0, -1, 11, 0, 38)

[node name="Dumpster" parent="Block/Square6" instance=ExtResource("4_fa388")]
transform = Transform3D(-4.37114e-08, 0, 1, 0, 1, 0, -1, 0, -4.37114e-08, 13, 0, 4.3)

[node name="Square7" type="Node3D" parent="Block"]
transform = Transform3D(1, 0, 0, 0, 1, 0, 0, 0, 1, 43, 0, 59)

[node name="Building" parent="Block/Square7" instance=ExtResource("3_eeelo")]
transform = Transform3D(1, 0, 0, 0, 1, 0, 0, 0, 1, 25, 0, 16)

[node name="Building4" parent="Block/Square7" instance=ExtResource("3_eeelo")]
transform = Transform3D(1, 0, 0, 0, 1, 0, 0, 0, 1, 25, 0, 38)

[node name="Building2" parent="Block/Square7" instance=ExtResource("3_eeelo")]
transform = Transform3D(-1, 0, -8.74228e-08, 0, 1, 0, 8.74228e-08, 0, -1, 11, 0, 16)

[node name="Building3" parent="Block/Square7" instance=ExtResource("3_eeelo")]
transform = Transform3D(-1, 0, -8.74228e-08, 0, 1, 0, 8.74228e-08, 0, -1, 11, 0, 38)

[node name="Dumpster" parent="Block/Square7" instance=ExtResource("4_fa388")]
transform = Transform3D(-4.37114e-08, 0, 1, 0, 1, 0, -1, 0, -4.37114e-08, 13, 0, 4.3)

[node name="Square8" type="Node3D" parent="Block"]
transform = Transform3D(1, 0, 0, 0, 1, 0, 0, 0, 1, 0, 0, 59)

[node name="Building" parent="Block/Square8" instance=ExtResource("3_eeelo")]
transform = Transform3D(1, 0, 0, 0, 1, 0, 0, 0, 1, 25, 0, 16)

[node name="Building4" parent="Block/Square8" instance=ExtResource("3_eeelo")]
transform = Transform3D(1, 0, 0, 0, 1, 0, 0, 0, 1, 25, 0, 38)

[node name="Building2" parent="Block/Square8" instance=ExtResource("3_eeelo")]
transform = Transform3D(-1, 0, -8.74228e-08, 0, 1, 0, 8.74228e-08, 0, -1, 11, 0, 16)

[node name="Building3" parent="Block/Square8" instance=ExtResource("3_eeelo")]
transform = Transform3D(-1, 0, -8.74228e-08, 0, 1, 0, 8.74228e-08, 0, -1, 11, 0, 38)

[node name="Dumpster" parent="Block/Square8" instance=ExtResource("4_fa388")]
transform = Transform3D(-4.37114e-08, 0, 1, 0, 1, 0, -1, 0, -4.37114e-08, 13, 0, 4.3)

[node name="Block2" type="Node3D" parent="."]
transform = Transform3D(1, 0, 0, 0, 1, 0, 0, 0, 1, -168, 0, 0)

[node name="Square" type="Node3D" parent="Block2"]

[node name="Building" parent="Block2/Square" instance=ExtResource("3_eeelo")]
transform = Transform3D(1, 0, 0, 0, 1, 0, 0, 0, 1, 25, 0, 16)

[node name="Building4" parent="Block2/Square" instance=ExtResource("3_eeelo")]
transform = Transform3D(1, 0, 0, 0, 1, 0, 0, 0, 1, 25, 0, 38)

[node name="Building2" parent="Block2/Square" instance=ExtResource("3_eeelo")]
transform = Transform3D(-1, 0, -8.74228e-08, 0, 1, 0, 8.74228e-08, 0, -1, 11, 0, 16)

[node name="Building3" parent="Block2/Square" instance=ExtResource("3_eeelo")]
transform = Transform3D(-1, 0, -8.74228e-08, 0, 1, 0, 8.74228e-08, 0, -1, 11, 0, 38)

[node name="Dumpster" parent="Block2/Square" instance=ExtResource("4_fa388")]
transform = Transform3D(-4.37114e-08, 0, 1, 0, 1, 0, -1, 0, -4.37114e-08, 13, 0, 4.3)

[node name="Square2" type="Node3D" parent="Block2"]
transform = Transform3D(1, 0, 0, 0, 1, 0, 0, 0, 1, 43, 0, 0)

[node name="Building" parent="Block2/Square2" instance=ExtResource("3_eeelo")]
transform = Transform3D(1, 0, 0, 0, 1, 0, 0, 0, 1, 25, 0, 16)

[node name="Building4" parent="Block2/Square2" instance=ExtResource("3_eeelo")]
transform = Transform3D(1, 0, 0, 0, 1, 0, 0, 0, 1, 25, 0, 38)

[node name="Building2" parent="Block2/Square2" instance=ExtResource("3_eeelo")]
transform = Transform3D(-1, 0, -8.74228e-08, 0, 1, 0, 8.74228e-08, 0, -1, 11, 0, 16)

[node name="Building3" parent="Block2/Square2" instance=ExtResource("3_eeelo")]
transform = Transform3D(-1, 0, -8.74228e-08, 0, 1, 0, 8.74228e-08, 0, -1, 11, 0, 38)

[node name="Dumpster" parent="Block2/Square2" instance=ExtResource("4_fa388")]
transform = Transform3D(-4.37114e-08, 0, 1, 0, 1, 0, -1, 0, -4.37114e-08, 13, 0, 4.3)

[node name="Square3" type="Node3D" parent="Block2"]
transform = Transform3D(1, 0, 0, 0, 1, 0, 0, 0, 1, 84, 0, 0)

[node name="Building" parent="Block2/Square3" instance=ExtResource("3_eeelo")]
transform = Transform3D(1, 0, 0, 0, 1, 0, 0, 0, 1, 25, 0, 16)

[node name="Building4" parent="Block2/Square3" instance=ExtResource("3_eeelo")]
transform = Transform3D(1, 0, 0, 0, 1, 0, 0, 0, 1, 25, 0, 38)

[node name="Building2" parent="Block2/Square3" instance=ExtResource("3_eeelo")]
transform = Transform3D(-1, 0, -8.74228e-08, 0, 1, 0, 8.74228e-08, 0, -1, 11, 0, 16)

[node name="Building3" parent="Block2/Square3" instance=ExtResource("3_eeelo")]
transform = Transform3D(-1, 0, -8.74228e-08, 0, 1, 0, 8.74228e-08, 0, -1, 11, 0, 38)

[node name="Dumpster" parent="Block2/Square3" instance=ExtResource("4_fa388")]
transform = Transform3D(-4.37114e-08, 0, 1, 0, 1, 0, -1, 0, -4.37114e-08, 13, 0, 4.3)

[node name="Square4" type="Node3D" parent="Block2"]
transform = Transform3D(1, 0, 0, 0, 1, 0, 0, 0, 1, 127, 0, 0)

[node name="Building" parent="Block2/Square4" instance=ExtResource("3_eeelo")]
transform = Transform3D(1, 0, 0, 0, 1, 0, 0, 0, 1, 25, 0, 16)

[node name="Building4" parent="Block2/Square4" instance=ExtResource("3_eeelo")]
transform = Transform3D(1, 0, 0, 0, 1, 0, 0, 0, 1, 25, 0, 38)

[node name="Building2" parent="Block2/Square4" instance=ExtResource("3_eeelo")]
transform = Transform3D(-1, 0, -8.74228e-08, 0, 1, 0, 8.74228e-08, 0, -1, 11, 0, 16)

[node name="Building3" parent="Block2/Square4" instance=ExtResource("3_eeelo")]
transform = Transform3D(-1, 0, -8.74228e-08, 0, 1, 0, 8.74228e-08, 0, -1, 11, 0, 38)

[node name="Dumpster" parent="Block2/Square4" instance=ExtResource("4_fa388")]
transform = Transform3D(-4.37114e-08, 0, 1, 0, 1, 0, -1, 0, -4.37114e-08, 13, 0, 4.3)

[node name="Square5" type="Node3D" parent="Block2"]
transform = Transform3D(1, 0, 0, 0, 1, 0, 0, 0, 1, 127, 0, 59)

[node name="Building" parent="Block2/Square5" instance=ExtResource("3_eeelo")]
transform = Transform3D(1, 0, 0, 0, 1, 0, 0, 0, 1, 25, 0, 16)

[node name="Building4" parent="Block2/Square5" instance=ExtResource("3_eeelo")]
transform = Transform3D(1, 0, 0, 0, 1, 0, 0, 0, 1, 25, 0, 38)

[node name="Building2" parent="Block2/Square5" instance=ExtResource("3_eeelo")]
transform = Transform3D(-1, 0, -8.74228e-08, 0, 1, 0, 8.74228e-08, 0, -1, 11, 0, 16)

[node name="Building3" parent="Block2/Square5" instance=ExtResource("3_eeelo")]
transform = Transform3D(-1, 0, -8.74228e-08, 0, 1, 0, 8.74228e-08, 0, -1, 11, 0, 38)

[node name="Dumpster" parent="Block2/Square5" instance=ExtResource("4_fa388")]
transform = Transform3D(-4.37114e-08, 0, 1, 0, 1, 0, -1, 0, -4.37114e-08, 13, 0, 4.3)

[node name="Square6" type="Node3D" parent="Block2"]
transform = Transform3D(1, 0, 0, 0, 1, 0, 0, 0, 1, 85, 0, 59)

[node name="Building" parent="Block2/Square6" instance=ExtResource("3_eeelo")]
transform = Transform3D(1, 0, 0, 0, 1, 0, 0, 0, 1, 25, 0, 16)

[node name="Building4" parent="Block2/Square6" instance=ExtResource("3_eeelo")]
transform = Transform3D(1, 0, 0, 0, 1, 0, 0, 0, 1, 25, 0, 38)

[node name="Building2" parent="Block2/Square6" instance=ExtResource("3_eeelo")]
transform = Transform3D(-1, 0, -8.74228e-08, 0, 1, 0, 8.74228e-08, 0, -1, 11, 0, 16)

[node name="Building3" parent="Block2/Square6" instance=ExtResource("3_eeelo")]
transform = Transform3D(-1, 0, -8.74228e-08, 0, 1, 0, 8.74228e-08, 0, -1, 11, 0, 38)

[node name="Dumpster" parent="Block2/Square6" instance=ExtResource("4_fa388")]
transform = Transform3D(-4.37114e-08, 0, 1, 0, 1, 0, -1, 0, -4.37114e-08, 13, 0, 4.3)

[node name="Square7" type="Node3D" parent="Block2"]
transform = Transform3D(1, 0, 0, 0, 1, 0, 0, 0, 1, 43, 0, 59)

[node name="Building" parent="Block2/Square7" instance=ExtResource("3_eeelo")]
transform = Transform3D(1, 0, 0, 0, 1, 0, 0, 0, 1, 25, 0, 16)

[node name="Building4" parent="Block2/Square7" instance=ExtResource("3_eeelo")]
transform = Transform3D(1, 0, 0, 0, 1, 0, 0, 0, 1, 25, 0, 38)

[node name="Building2" parent="Block2/Square7" instance=ExtResource("3_eeelo")]
transform = Transform3D(-1, 0, -8.74228e-08, 0, 1, 0, 8.74228e-08, 0, -1, 11, 0, 16)

[node name="Building3" parent="Block2/Square7" instance=ExtResource("3_eeelo")]
transform = Transform3D(-1, 0, -8.74228e-08, 0, 1, 0, 8.74228e-08, 0, -1, 11, 0, 38)

[node name="Dumpster" parent="Block2/Square7" instance=ExtResource("4_fa388")]
transform = Transform3D(-4.37114e-08, 0, 1, 0, 1, 0, -1, 0, -4.37114e-08, 13, 0, 4.3)

[node name="Square8" type="Node3D" parent="Block2"]
transform = Transform3D(1, 0, 0, 0, 1, 0, 0, 0, 1, 0, 0, 59)

[node name="Building" parent="Block2/Square8" instance=ExtResource("3_eeelo")]
transform = Transform3D(1, 0, 0, 0, 1, 0, 0, 0, 1, 25, 0, 16)

[node name="Building4" parent="Block2/Square8" instance=ExtResource("3_eeelo")]
transform = Transform3D(1, 0, 0, 0, 1, 0, 0, 0, 1, 25, 0, 38)

[node name="Building2" parent="Block2/Square8" instance=ExtResource("3_eeelo")]
transform = Transform3D(-1, 0, -8.74228e-08, 0, 1, 0, 8.74228e-08, 0, -1, 11, 0, 16)

[node name="Building3" parent="Block2/Square8" instance=ExtResource("3_eeelo")]
transform = Transform3D(-1, 0, -8.74228e-08, 0, 1, 0, 8.74228e-08, 0, -1, 11, 0, 38)

[node name="Dumpster" parent="Block2/Square8" instance=ExtResource("4_fa388")]
transform = Transform3D(-4.37114e-08, 0, 1, 0, 1, 0, -1, 0, -4.37114e-08, 13, 0, 4.3)

[node name="Block3" type="Node3D" parent="."]
transform = Transform3D(1, 0, 0, 0, 1, 0, 0, 0, 1, -168, 0, -121)

[node name="Square" type="Node3D" parent="Block3"]

[node name="Building" parent="Block3/Square" instance=ExtResource("3_eeelo")]
transform = Transform3D(1, 0, 0, 0, 1, 0, 0, 0, 1, 25, 0, 16)

[node name="Building4" parent="Block3/Square" instance=ExtResource("3_eeelo")]
transform = Transform3D(1, 0, 0, 0, 1, 0, 0, 0, 1, 25, 0, 38)

[node name="Building2" parent="Block3/Square" instance=ExtResource("3_eeelo")]
transform = Transform3D(-1, 0, -8.74228e-08, 0, 1, 0, 8.74228e-08, 0, -1, 11, 0, 16)

[node name="Building3" parent="Block3/Square" instance=ExtResource("3_eeelo")]
transform = Transform3D(-1, 0, -8.74228e-08, 0, 1, 0, 8.74228e-08, 0, -1, 11, 0, 38)

[node name="Dumpster" parent="Block3/Square" instance=ExtResource("4_fa388")]
transform = Transform3D(-4.37114e-08, 0, 1, 0, 1, 0, -1, 0, -4.37114e-08, 13, 0, 4.3)

[node name="Square2" type="Node3D" parent="Block3"]
transform = Transform3D(1, 0, 0, 0, 1, 0, 0, 0, 1, 43, 0, 0)

[node name="Building" parent="Block3/Square2" instance=ExtResource("3_eeelo")]
transform = Transform3D(1, 0, 0, 0, 1, 0, 0, 0, 1, 25, 0, 16)

[node name="Building4" parent="Block3/Square2" instance=ExtResource("3_eeelo")]
transform = Transform3D(1, 0, 0, 0, 1, 0, 0, 0, 1, 25, 0, 38)

[node name="Building2" parent="Block3/Square2" instance=ExtResource("3_eeelo")]
transform = Transform3D(-1, 0, -8.74228e-08, 0, 1, 0, 8.74228e-08, 0, -1, 11, 0, 16)

[node name="Building3" parent="Block3/Square2" instance=ExtResource("3_eeelo")]
transform = Transform3D(-1, 0, -8.74228e-08, 0, 1, 0, 8.74228e-08, 0, -1, 11, 0, 38)

[node name="Dumpster" parent="Block3/Square2" instance=ExtResource("4_fa388")]
transform = Transform3D(-4.37114e-08, 0, 1, 0, 1, 0, -1, 0, -4.37114e-08, 13, 0, 4.3)

[node name="Square3" type="Node3D" parent="Block3"]
transform = Transform3D(1, 0, 0, 0, 1, 0, 0, 0, 1, 84, 0, 0)

[node name="Building" parent="Block3/Square3" instance=ExtResource("3_eeelo")]
transform = Transform3D(1, 0, 0, 0, 1, 0, 0, 0, 1, 25, 0, 16)

[node name="Building4" parent="Block3/Square3" instance=ExtResource("3_eeelo")]
transform = Transform3D(1, 0, 0, 0, 1, 0, 0, 0, 1, 25, 0, 38)

[node name="Building2" parent="Block3/Square3" instance=ExtResource("3_eeelo")]
transform = Transform3D(-1, 0, -8.74228e-08, 0, 1, 0, 8.74228e-08, 0, -1, 11, 0, 16)

[node name="Building3" parent="Block3/Square3" instance=ExtResource("3_eeelo")]
transform = Transform3D(-1, 0, -8.74228e-08, 0, 1, 0, 8.74228e-08, 0, -1, 11, 0, 38)

[node name="Dumpster" parent="Block3/Square3" instance=ExtResource("4_fa388")]
transform = Transform3D(-4.37114e-08, 0, 1, 0, 1, 0, -1, 0, -4.37114e-08, 13, 0, 4.3)

[node name="Square4" type="Node3D" parent="Block3"]
transform = Transform3D(1, 0, 0, 0, 1, 0, 0, 0, 1, 127, 0, 0)

[node name="Building" parent="Block3/Square4" instance=ExtResource("3_eeelo")]
transform = Transform3D(1, 0, 0, 0, 1, 0, 0, 0, 1, 25, 0, 16)

[node name="Building4" parent="Block3/Square4" instance=ExtResource("3_eeelo")]
transform = Transform3D(1, 0, 0, 0, 1, 0, 0, 0, 1, 25, 0, 38)

[node name="Building2" parent="Block3/Square4" instance=ExtResource("3_eeelo")]
transform = Transform3D(-1, 0, -8.74228e-08, 0, 1, 0, 8.74228e-08, 0, -1, 11, 0, 16)

[node name="Building3" parent="Block3/Square4" instance=ExtResource("3_eeelo")]
transform = Transform3D(-1, 0, -8.74228e-08, 0, 1, 0, 8.74228e-08, 0, -1, 11, 0, 38)

[node name="Dumpster" parent="Block3/Square4" instance=ExtResource("4_fa388")]
transform = Transform3D(-4.37114e-08, 0, 1, 0, 1, 0, -1, 0, -4.37114e-08, 13, 0, 4.3)

[node name="Square5" type="Node3D" parent="Block3"]
transform = Transform3D(1, 0, 0, 0, 1, 0, 0, 0, 1, 127, 0, 59)

[node name="Building" parent="Block3/Square5" instance=ExtResource("3_eeelo")]
transform = Transform3D(1, 0, 0, 0, 1, 0, 0, 0, 1, 25, 0, 16)

[node name="Building4" parent="Block3/Square5" instance=ExtResource("3_eeelo")]
transform = Transform3D(1, 0, 0, 0, 1, 0, 0, 0, 1, 25, 0, 38)

[node name="Building2" parent="Block3/Square5" instance=ExtResource("3_eeelo")]
transform = Transform3D(-1, 0, -8.74228e-08, 0, 1, 0, 8.74228e-08, 0, -1, 11, 0, 16)

[node name="Building3" parent="Block3/Square5" instance=ExtResource("3_eeelo")]
transform = Transform3D(-1, 0, -8.74228e-08, 0, 1, 0, 8.74228e-08, 0, -1, 11, 0, 38)

[node name="Dumpster" parent="Block3/Square5" instance=ExtResource("4_fa388")]
transform = Transform3D(-4.37114e-08, 0, 1, 0, 1, 0, -1, 0, -4.37114e-08, 13, 0, 4.3)

[node name="Square6" type="Node3D" parent="Block3"]
transform = Transform3D(1, 0, 0, 0, 1, 0, 0, 0, 1, 85, 0, 59)

[node name="Building" parent="Block3/Square6" instance=ExtResource("3_eeelo")]
transform = Transform3D(1, 0, 0, 0, 1, 0, 0, 0, 1, 25, 0, 16)

[node name="Building4" parent="Block3/Square6" instance=ExtResource("3_eeelo")]
transform = Transform3D(1, 0, 0, 0, 1, 0, 0, 0, 1, 25, 0, 38)

[node name="Building2" parent="Block3/Square6" instance=ExtResource("3_eeelo")]
transform = Transform3D(-1, 0, -8.74228e-08, 0, 1, 0, 8.74228e-08, 0, -1, 11, 0, 16)

[node name="Building3" parent="Block3/Square6" instance=ExtResource("3_eeelo")]
transform = Transform3D(-1, 0, -8.74228e-08, 0, 1, 0, 8.74228e-08, 0, -1, 11, 0, 38)

[node name="Dumpster" parent="Block3/Square6" instance=ExtResource("4_fa388")]
transform = Transform3D(-4.37114e-08, 0, 1, 0, 1, 0, -1, 0, -4.37114e-08, 13, 0, 4.3)

[node name="Square7" type="Node3D" parent="Block3"]
transform = Transform3D(1, 0, 0, 0, 1, 0, 0, 0, 1, 43, 0, 59)

[node name="Building" parent="Block3/Square7" instance=ExtResource("3_eeelo")]
transform = Transform3D(1, 0, 0, 0, 1, 0, 0, 0, 1, 25, 0, 16)

[node name="Building4" parent="Block3/Square7" instance=ExtResource("3_eeelo")]
transform = Transform3D(1, 0, 0, 0, 1, 0, 0, 0, 1, 25, 0, 38)

[node name="Building2" parent="Block3/Square7" instance=ExtResource("3_eeelo")]
transform = Transform3D(-1, 0, -8.74228e-08, 0, 1, 0, 8.74228e-08, 0, -1, 11, 0, 16)

[node name="Building3" parent="Block3/Square7" instance=ExtResource("3_eeelo")]
transform = Transform3D(-1, 0, -8.74228e-08, 0, 1, 0, 8.74228e-08, 0, -1, 11, 0, 38)

[node name="Dumpster" parent="Block3/Square7" instance=ExtResource("4_fa388")]
transform = Transform3D(-4.37114e-08, 0, 1, 0, 1, 0, -1, 0, -4.37114e-08, 13, 0, 4.3)

[node name="Square8" type="Node3D" parent="Block3"]
transform = Transform3D(1, 0, 0, 0, 1, 0, 0, 0, 1, 0, 0, 59)

[node name="Building" parent="Block3/Square8" instance=ExtResource("3_eeelo")]
transform = Transform3D(1, 0, 0, 0, 1, 0, 0, 0, 1, 25, 0, 16)

[node name="Building4" parent="Block3/Square8" instance=ExtResource("3_eeelo")]
transform = Transform3D(1, 0, 0, 0, 1, 0, 0, 0, 1, 25, 0, 38)

[node name="Building2" parent="Block3/Square8" instance=ExtResource("3_eeelo")]
transform = Transform3D(-1, 0, -8.74228e-08, 0, 1, 0, 8.74228e-08, 0, -1, 11, 0, 16)

[node name="Building3" parent="Block3/Square8" instance=ExtResource("3_eeelo")]
transform = Transform3D(-1, 0, -8.74228e-08, 0, 1, 0, 8.74228e-08, 0, -1, 11, 0, 38)

[node name="Dumpster" parent="Block3/Square8" instance=ExtResource("4_fa388")]
transform = Transform3D(-4.37114e-08, 0, 1, 0, 1, 0, -1, 0, -4.37114e-08, 13, 0, 4.3)
