[gd_scene load_steps=3 format=3 uid="uid://cudkor7d25nkw"]

[ext_resource type="Script" path="res://UI/end_screen.gd" id="1_4s2ky"]

[sub_resource type="SystemFont" id="SystemFont_y1q31"]
font_names = PackedStringArray("MS UI Gothic")

[node name="EndScreen" type="Control"]
process_mode = 3
layout_mode = 3
anchors_preset = 15
anchor_right = 1.0
anchor_bottom = 1.0
grow_horizontal = 2
grow_vertical = 2
script = ExtResource("1_4s2ky")

[node name="VBoxContainer" type="VBoxContainer" parent="."]
layout_mode = 1
anchors_preset = 15
anchor_right = 1.0
anchor_bottom = 1.0
grow_horizontal = 2
grow_vertical = 2
alignment = 1

[node name="Label" type="Label" parent="VBoxContainer"]
unique_name_in_owner = true
layout_mode = 2
theme_override_fonts/font = SubResource("SystemFont_y1q31")
theme_override_font_sizes/font_size = 100
text = "CULTEX"
horizontal_alignment = 1
vertical_alignment = 1
